data/20000101_022700d.csv

Channel              :,CH1,CH2
Frequency            :,2.533KHz,2.530KHz
Period               :,0.395ms,0.395ms
PK-PK                :,10.16V,4.240V
Average              :,-83.89mV,-56.00mV
Vertical pos         :,160.000000mV,0.000000mV
Probe attenuation    :,1X,1X
Voltage per ADC value:,1.250000mV,0.625000mV
Time interval        :,4.00000uS,4.00000uS

index,CH1_Voltage(mV),CH2_Voltage(mV)
1,-4000.000000,0.000000
2,-3840.000000,120.000000
3,-3600.000000,240.000000
4,-3440.000000,400.000000
5,-3200.000000,520.000000
6,-2960.000000,640.000000
7,-2720.000000,760.000000
8,-2480.000000,880.000000
9,-2160.000000,1000.000000
10,-1920.000000,1080.000000
11,-1600.000000,1200.000000
12,-1280.000000,1280.000000
13,-1040.000000,1400.000000
14,-720.000000,1480.000000
15,-400.000000,1560.000000
16,-80.000000,1640.000000
17,240.000000,1720.000000
18,560.000000,1760.000000
19,880.000000,1840.000000
20,1200.000000,1880.000000
21,1520.000000,1920.000000
22,1840.000000,1960.000000
23,2160.000000,1960.000000
24,2480.000000,2000.000000
25,2720.000000,2000.000000
26,3040.000000,2000.000000
27,3280.000000,2000.000000
28,3520.000000,1960.000000
29,3760.000000,1920.000000
30,4000.000000,1920.000000
31,4240.000000,1880.000000
32,4400.000000,1800.000000
33,4640.000000,1760.000000
34,4720.000000,1720.000000
35,4720.000000,1640.000000
36,4720.000000,1520.000000
37,4720.000000,1440.000000
38,4640.000000,1360.000000
39,4640.000000,1240.000000
40,4640.000000,1120.000000
41,4640.000000,1000.000000
42,4560.000000,880.000000
43,4560.000000,760.000000
44,4560.000000,600.000000
45,4480.000000,480.000000
46,4480.000000,320.000000
47,4400.000000,200.000000
48,4320.000000,80.000000
49,4160.000000,-80.000000
50,4000.000000,-200.000000
51,3840.000000,-360.000000
52,3680.000000,-480.000000
53,3520.000000,-600.000000
54,3280.000000,-760.000000
55,3040.000000,-880.000000
56,2800.000000,-1000.000000
57,2560.000000,-1120.000000
58,2320.000000,-1240.000000
59,2000.000000,-1360.000000
60,1760.000000,-1440.000000
61,1440.000000,-1560.000000
62,1120.000000,-1640.000000
63,800.000000,-1720.000000
64,480.000000,-1800.000000
65,160.000000,-1880.000000
66,-80.000000,-1960.000000
67,-400.000000,-2000.000000
68,-720.000000,-2040.000000
69,-1040.000000,-2080.000000
70,-1360.000000,-2120.000000
71,-1680.000000,-2160.000000
72,-1920.000000,-2160.000000
73,-2240.000000,-2160.000000
74,-2480.000000,-2160.000000
75,-2720.000000,-2160.000000
76,-3040.000000,-2120.000000
77,-3200.000000,-2080.000000
78,-3440.000000,-2040.000000
79,-3680.000000,-2000.000000
80,-3840.000000,-1960.000000
81,-4000.000000,-1920.000000
82,-4160.000000,-1840.000000
83,-4320.000000,-1760.000000
84,-4480.000000,-1640.000000
85,-4560.000000,-1560.000000
86,-4720.000000,-1480.000000
87,-4800.000000,-1360.000000
88,-4960.000000,-1280.000000
89,-5040.000000,-1160.000000
90,-5200.000000,-1040.000000
91,-5200.000000,-920.000000
92,-5280.000000,-800.000000
93,-5360.000000,-720.000000
94,-5360.000000,-560.000000
95,-5440.000000,-440.000000
96,-5440.000000,-360.000000
97,-5440.000000,-240.000000
98,-5360.000000,-80.000000
99,-5280.000000,0.000000
100,-5200.000000,120.000000
101,-5040.000000,240.000000
102,-4880.000000,360.000000
103,-4720.000000,480.000000
104,-4480.000000,560.000000
105,-4160.000000,680.000000
106,-3920.000000,800.000000
107,-3600.000000,880.000000
108,-3280.000000,1000.000000
109,-2960.000000,1080.000000
110,-2640.000000,1200.000000
111,-2320.000000,1280.000000
112,-2000.000000,1360.000000
113,-1600.000000,1440.000000
114,-1280.000000,1520.000000
115,-960.000000,1600.000000
116,-640.000000,1680.000000
117,-240.000000,1720.000000
118,80.000000,1760.000000
119,400.000000,1800.000000
120,720.000000,1880.000000
121,1040.000000,1880.000000
122,1360.000000,1920.000000
123,1680.000000,1960.000000
124,2000.000000,1960.000000
125,2320.000000,1960.000000
126,2560.000000,1960.000000
127,2800.000000,1920.000000
128,3120.000000,1880.000000
129,3360.000000,1880.000000
130,3600.000000,1840.000000
131,3840.000000,1800.000000
132,4000.000000,1760.000000
133,4160.000000,1680.000000
134,4320.000000,1600.000000
135,4480.000000,1560.000000
136,4640.000000,1480.000000
137,4640.000000,1400.000000
138,4640.000000,1280.000000
139,4640.000000,1200.000000
140,4640.000000,1080.000000
141,4640.000000,1000.000000
142,4560.000000,840.000000
143,4560.000000,720.000000
144,4560.000000,600.000000
145,4560.000000,480.000000
146,4480.000000,360.000000
147,4400.000000,240.000000
148,4320.000000,80.000000
149,4240.000000,-40.000000
150,4080.000000,-160.000000
151,3920.000000,-280.000000
152,3760.000000,-400.000000
153,3520.000000,-560.000000
154,3360.000000,-680.000000
155,3120.000000,-800.000000
156,2880.000000,-920.000000
157,2640.000000,-1040.000000
158,2400.000000,-1120.000000
159,2160.000000,-1240.000000
160,1840.000000,-1360.000000
161,1600.000000,-1440.000000
162,1280.000000,-1520.000000
163,960.000000,-1600.000000
164,720.000000,-1680.000000
165,400.000000,-1760.000000
166,80.000000,-1840.000000
167,-160.000000,-1880.000000
168,-480.000000,-1920.000000
169,-800.000000,-1960.000000
170,-1040.000000,-2000.000000
171,-1360.000000,-2040.000000
172,-1600.000000,-2040.000000
173,-1920.000000,-2040.000000
174,-2160.000000,-2040.000000
175,-2400.000000,-2040.000000
176,-2640.000000,-2040.000000
177,-2880.000000,-2000.000000
178,-3120.000000,-1960.000000
179,-3360.000000,-1920.000000
180,-3520.000000,-1880.000000
181,-3680.000000,-1840.000000
182,-3840.000000,-1760.000000
183,-4000.000000,-1680.000000
184,-4080.000000,-1680.000000
185,-4240.000000,-1520.000000
186,-4320.000000,-1440.000000
187,-4400.000000,-1360.000000
188,-4480.000000,-1240.000000
189,-4480.000000,-1120.000000
190,-4560.000000,-1040.000000
191,-4560.000000,-920.000000
192,-4560.000000,-800.000000
193,-4560.000000,-680.000000
194,-4560.000000,-560.000000
195,-4480.000000,-440.000000
196,-4400.000000,-320.000000
197,-4240.000000,-200.000000
198,-4080.000000,-80.000000
199,-3920.000000,40.000000
200,-3760.000000,200.000000
201,-3600.000000,320.000000
202,-3360.000000,440.000000
203,-3120.000000,560.000000
204,-2880.000000,680.000000
205,-2640.000000,800.000000
206,-2320.000000,920.000000
207,-2080.000000,1040.000000
208,-1760.000000,1160.000000
209,-1440.000000,1240.000000
210,-1200.000000,1360.000000
211,-880.000000,1440.000000
212,-560.000000,1520.000000
213,-240.000000,1600.000000
214,80.000000,1680.000000
215,400.000000,1720.000000
216,720.000000,1800.000000
217,1040.000000,1840.000000
218,1360.000000,1880.000000
219,1680.000000,1920.000000
220,2000.000000,1960.000000
221,2320.000000,2000.000000
222,2560.000000,2000.000000
223,2880.000000,2000.000000
224,3120.000000,2000.000000
225,3360.000000,2000.000000
226,3680.000000,1960.000000
227,3920.000000,1960.000000
228,4080.000000,1880.000000
229,4320.000000,1840.000000
230,4480.000000,1800.000000
231,4640.000000,1720.000000
232,4720.000000,1680.000000
233,4720.000000,1600.000000
234,4720.000000,1520.000000
235,4720.000000,1400.000000
236,4640.000000,1320.000000
237,4640.000000,1200.000000
238,4640.000000,1080.000000
239,4640.000000,920.000000
240,4560.000000,800.000000
241,4560.000000,680.000000
242,4560.000000,560.000000
243,4480.000000,400.000000
244,4480.000000,280.000000
245,4320.000000,120.000000
246,4240.000000,0.000000
247,4160.000000,-120.000000
248,4000.000000,-280.000000
249,3840.000000,-400.000000
250,3600.000000,-560.000000
251,3440.000000,-680.000000
252,3200.000000,-800.000000
253,2960.000000,-920.000000
254,2720.000000,-1040.000000
255,2400.000000,-1160.000000
256,2160.000000,-1280.000000
257,1840.000000,-1400.000000
258,1600.000000,-1480.000000
259,1280.000000,-1600.000000
260,960.000000,-1680.000000
261,720.000000,-1760.000000
262,400.000000,-1840.000000
263,80.000000,-1920.000000
264,-240.000000,-2000.000000
265,-560.000000,-2040.000000
266,-880.000000,-2080.000000
267,-1200.000000,-2120.000000
268,-1520.000000,-2120.000000
269,-1760.000000,-2160.000000
270,-2080.000000,-2160.000000
271,-2320.000000,-2160.000000
272,-2560.000000,-2160.000000
273,-2880.000000,-2160.000000
274,-3120.000000,-2120.000000
275,-3360.000000,-2080.000000
276,-3520.000000,-2040.000000
277,-3760.000000,-2000.000000
278,-3920.000000,-1920.000000
279,-4080.000000,-1880.000000
280,-4240.000000,-1800.000000
281,-4400.000000,-1720.000000
282,-4480.000000,-1600.000000
283,-4640.000000,-1520.000000
284,-4800.000000,-1440.000000
285,-4880.000000,-1320.000000
286,-5040.000000,-1200.000000
287,-5120.000000,-1120.000000
288,-5200.000000,-1000.000000
289,-5280.000000,-880.000000
290,-5360.000000,-760.000000
291,-5360.000000,-640.000000
292,-5440.000000,-520.000000
293,-5440.000000,-400.000000
294,-5440.000000,-280.000000
295,-5360.000000,-160.000000
296,-5360.000000,-40.000000
297,-5200.000000,40.000000
298,-5120.000000,160.000000
299,-4960.000000,280.000000
300,-4800.000000,400.000000
301,-4640.000000,520.000000
302,-4400.000000,600.000000
303,-4080.000000,720.000000
304,-3760.000000,840.000000
305,-3440.000000,960.000000
306,-3120.000000,1040.000000
307,-2800.000000,1120.000000
308,-2480.000000,1240.000000
309,-2160.000000,1320.000000
310,-1840.000000,1400.000000
311,-1520.000000,1480.000000
312,-1120.000000,1560.000000
313,-800.000000,1640.000000
314,-480.000000,1680.000000
315,-160.000000,1760.000000
316,240.000000,1800.000000
317,560.000000,1840.000000
318,880.000000,1880.000000
319,1200.000000,1920.000000
320,1520.000000,1920.000000
321,1840.000000,1920.000000
322,2080.000000,1920.000000
323,2400.000000,1920.000000
324,2720.000000,1920.000000
325,2960.000000,1920.000000
326,3200.000000,1880.000000
327,3440.000000,1840.000000
328,3680.000000,1800.000000
329,3920.000000,1760.000000
330,4080.000000,1720.000000
331,4240.000000,1640.000000
332,4400.000000,1560.000000
333,4560.000000,1520.000000
334,4640.000000,1440.000000
335,4640.000000,1320.000000
336,4640.000000,1240.000000
337,4640.000000,1120.000000
338,4640.000000,1040.000000
339,4640.000000,920.000000
340,4560.000000,800.000000
341,4560.000000,680.000000
342,4560.000000,560.000000
343,4480.000000,440.000000
344,4480.000000,320.000000
345,4400.000000,160.000000
346,4240.000000,40.000000
347,4160.000000,-80.000000
348,4000.000000,-200.000000
349,3840.000000,-320.000000
350,3680.000000,-480.000000
351,3440.000000,-600.000000
352,3280.000000,-720.000000
353,3040.000000,-840.000000
354,2800.000000,-960.000000
355,2560.000000,-1080.000000
356,2320.000000,-1160.000000
357,2000.000000,-1280.000000
358,1760.000000,-1400.000000
359,1440.000000,-1480.000000
360,1200.000000,-1560.000000
361,880.000000,-1640.000000
362,560.000000,-1720.000000
363,320.000000,-1800.000000
364,0.000000,-1840.000000
365,-320.000000,-1880.000000
366,-640.000000,-1960.000000
367,-880.000000,-2000.000000
368,-1200.000000,-2000.000000
369,-1440.000000,-2040.000000
370,-1760.000000,-2040.000000
371,-2000.000000,-2080.000000
372,-2240.000000,-2040.000000
373,-2560.000000,-2040.000000
374,-2720.000000,-2040.000000
375,-2960.000000,-2000.000000
376,-3200.000000,-1960.000000
377,-3440.000000,-1920.000000
378,-3600.000000,-1880.000000
379,-3760.000000,-1800.000000
380,-3920.000000,-1720.000000
381,-4080.000000,-1680.000000
382,-4160.000000,-1600.000000
383,-4240.000000,-1480.000000
384,-4320.000000,-1360.000000
385,-4400.000000,-1280.000000
386,-4480.000000,-1200.000000
387,-4480.000000,-1080.000000
388,-4560.000000,-1000.000000
389,-4560.000000,-880.000000
390,-4560.000000,-760.000000
391,-4560.000000,-640.000000
392,-4480.000000,-520.000000
393,-4400.000000,-400.000000
394,-4320.000000,-280.000000
395,-4160.000000,-120.000000
396,-4000.000000,0.000000
397,-3840.000000,120.000000
398,-3680.000000,240.000000
399,-3440.000000,360.000000
400,-3200.000000,480.000000
401,-2960.000000,600.000000
402,-2720.000000,720.000000
403,-2480.000000,840.000000
404,-2240.000000,960.000000
405,-1920.000000,1080.000000
406,-1680.000000,1200.000000
407,-1360.000000,1280.000000
408,-1040.000000,1360.000000
409,-720.000000,1480.000000
410,-400.000000,1560.000000
411,-80.000000,1640.000000
412,240.000000,1720.000000
413,560.000000,1760.000000
414,880.000000,1840.000000
415,1200.000000,1880.000000
416,1520.000000,1880.000000
417,1760.000000,1920.000000
418,2080.000000,1960.000000
419,2400.000000,1960.000000
420,2720.000000,2000.000000
421,2960.000000,2000.000000
422,3200.000000,2000.000000
423,3520.000000,2000.000000
424,3760.000000,1960.000000
425,4000.000000,1920.000000
426,4240.000000,1880.000000
427,4400.000000,1840.000000
428,4560.000000,1800.000000
429,4640.000000,1720.000000
430,4720.000000,1600.000000
431,4720.000000,1560.000000
432,4720.000000,1480.000000
433,4640.000000,1360.000000
434,4640.000000,1240.000000
435,4640.000000,1120.000000
436,4640.000000,1000.000000
437,4640.000000,880.000000
438,4560.000000,760.000000
439,4560.000000,640.000000
440,4560.000000,480.000000
441,4480.000000,360.000000
442,4400.000000,200.000000
443,4320.000000,80.000000
444,4240.000000,-40.000000
445,4080.000000,-200.000000
446,3920.000000,-320.000000
447,3760.000000,-480.000000
448,3520.000000,-600.000000
449,3280.000000,-720.000000
450,3120.000000,-840.000000
451,2880.000000,-1000.000000
452,2560.000000,-1080.000000
453,2320.000000,-1200.000000
454,2080.000000,-1320.000000
455,1760.000000,-1440.000000
456,1440.000000,-1560.000000
457,1120.000000,-1640.000000
458,880.000000,-1720.000000
459,560.000000,-1760.000000
460,240.000000,-1920.000000
461,-80.000000,-1920.000000
462,-400.000000,-2000.000000
463,-720.000000,-2040.000000
464,-1040.000000,-2080.000000
465,-1280.000000,-2080.000000
466,-1600.000000,-2120.000000
467,-1920.000000,-2160.000000
468,-2160.000000,-2160.000000
469,-2480.000000,-2160.000000
470,-2720.000000,-2160.000000
471,-2960.000000,-2120.000000
472,-3200.000000,-2120.000000
473,-3440.000000,-2080.000000
474,-3680.000000,-2000.000000
475,-3840.000000,-1960.000000
476,-4000.000000,-1880.000000
477,-4160.000000,-1840.000000
478,-4320.000000,-1760.000000
479,-4480.000000,-1680.000000
480,-4560.000000,-1560.000000
481,-4720.000000,-1480.000000
482,-4880.000000,-1400.000000
483,-4960.000000,-1280.000000
484,-5040.000000,-1160.000000
485,-5120.000000,-1080.000000
486,-5200.000000,-960.000000
487,-5280.000000,-840.000000
488,-5360.000000,-720.000000
489,-5360.000000,-600.000000
490,-5440.000000,-480.000000
491,-5440.000000,-360.000000
492,-5440.000000,-240.000000
493,-5360.000000,-120.000000
494,-5280.000000,0.000000
495,-5200.000000,120.000000
496,-5040.000000,240.000000
497,-4880.000000,320.000000
498,-4720.000000,440.000000
499,-4480.000000,560.000000
500,-4240.000000,680.000000
501,-3920.000000,760.000000
502,-3600.000000,880.000000
503,-3280.000000,1000.000000
504,-2960.000000,1080.000000
505,-2640.000000,1160.000000
506,-2320.000000,1280.000000
507,-2000.000000,1360.000000
508,-1680.000000,1440.000000
509,-1280.000000,1520.000000
510,-960.000000,1600.000000
511,-640.000000,1640.000000
512,-320.000000,1720.000000
513,0.000000,1760.000000
514,320.000000,1800.000000
515,720.000000,1840.000000
516,1040.000000,1880.000000
517,1360.000000,1920.000000
518,1680.000000,1920.000000
519,2000.000000,1960.000000
520,2240.000000,1920.000000
521,2560.000000,1920.000000
522,2800.000000,1920.000000
523,3040.000000,1920.000000
524,3280.000000,1880.000000
525,3520.000000,1840.000000
526,3760.000000,1800.000000
527,4000.000000,1760.000000
528,4160.000000,1680.000000
529,4320.000000,1640.000000
530,4480.000000,1560.000000
531,4640.000000,1480.000000
532,4640.000000,1400.000000
533,4640.000000,1280.000000
534,4640.000000,1200.000000
535,4640.000000,1080.000000
536,4640.000000,1000.000000
537,4560.000000,880.000000
538,4560.000000,760.000000
539,4560.000000,640.000000
540,4480.000000,480.000000
541,4480.000000,360.000000
542,4400.000000,240.000000
543,4320.000000,120.000000
544,4240.000000,0.000000
545,4080.000000,-160.000000
546,3920.000000,-280.000000
547,3760.000000,-400.000000
548,3600.000000,-520.000000
549,3360.000000,-640.000000
550,3200.000000,-760.000000
551,2960.000000,-920.000000
552,2720.000000,-1000.000000
553,2400.000000,-1120.000000
554,2160.000000,-1240.000000
555,1920.000000,-1320.000000
556,1600.000000,-1440.000000
557,1360.000000,-1520.000000
558,1040.000000,-1600.000000
559,800.000000,-1680.000000
560,480.000000,-1720.000000
561,160.000000,-1800.000000
562,-160.000000,-1880.000000
563,-400.000000,-1920.000000
564,-720.000000,-1960.000000
565,-1040.000000,-2000.000000
566,-1280.000000,-2040.000000
567,-1600.000000,-2040.000000
568,-1840.000000,-2040.000000
569,-2160.000000,-2040.000000
570,-2400.000000,-2040.000000
571,-2640.000000,-2040.000000
572,-2880.000000,-2000.000000
573,-3120.000000,-1960.000000
574,-3280.000000,-1960.000000
575,-3520.000000,-1880.000000
576,-3680.000000,-1840.000000
577,-3840.000000,-1760.000000
578,-4000.000000,-1720.000000
579,-4080.000000,-1640.000000
580,-4240.000000,-1520.000000
581,-4320.000000,-1440.000000
582,-4400.000000,-1360.000000
583,-4480.000000,-1280.000000
584,-4480.000000,-1160.000000
585,-4560.000000,-1040.000000
586,-4560.000000,-920.000000
587,-4560.000000,-800.000000
588,-4560.000000,-680.000000
589,-4560.000000,-600.000000
590,-4480.000000,-440.000000
591,-4400.000000,-320.000000
592,-4240.000000,-200.000000
593,-4160.000000,-80.000000
594,-3920.000000,40.000000
595,-3760.000000,160.000000
596,-3600.000000,320.000000
597,-3360.000000,440.000000
598,-3120.000000,560.000000
599,-2880.000000,680.000000
600,-2640.000000,800.000000
601,-2400.000000,920.000000
602,-2080.000000,1040.000000
603,-1840.000000,1080.000000
604,-1520.000000,1240.000000
605,-1200.000000,1320.000000
606,-880.000000,1440.000000
607,-640.000000,1520.000000
608,-240.000000,1600.000000
609,0.000000,1680.000000
610,400.000000,1720.000000
611,720.000000,1800.000000
612,1040.000000,1880.000000
613,1280.000000,1880.000000
614,1600.000000,1920.000000
615,1920.000000,1960.000000
616,2240.000000,2000.000000
617,2560.000000,2000.000000
618,2800.000000,2000.000000
619,3120.000000,2000.000000
620,3360.000000,2000.000000
621,3600.000000,1960.000000
622,3840.000000,1920.000000
623,4080.000000,1880.000000
624,4240.000000,1840.000000
625,4480.000000,1800.000000
626,4640.000000,1760.000000
627,4720.000000,1680.000000
628,4720.000000,1600.000000
629,4720.000000,1520.000000
630,4720.000000,1400.000000
631,4640.000000,1320.000000
632,4640.000000,1200.000000
633,4640.000000,1080.000000
634,4640.000000,960.000000
635,4560.000000,840.000000
636,4560.000000,720.000000
637,4560.000000,560.000000
638,4480.000000,440.000000
639,4480.000000,280.000000
640,4400.000000,160.000000
641,4320.000000,40.000000
642,4160.000000,-160.000000
643,4000.000000,-240.000000
644,3840.000000,-400.000000
645,3600.000000,-520.000000
646,3440.000000,-680.000000
647,3200.000000,-800.000000
648,2960.000000,-920.000000
649,2720.000000,-1040.000000
650,2480.000000,-1160.000000
651,2240.000000,-1280.000000
652,1920.000000,-1400.000000
653,1600.000000,-1480.000000
654,1360.000000,-1600.000000
655,1040.000000,-1680.000000
656,720.000000,-1760.000000
657,400.000000,-1840.000000
658,80.000000,-1920.000000
659,-240.000000,-1920.000000
660,-560.000000,-2040.000000
661,-800.000000,-2080.000000
662,-1120.000000,-2080.000000
663,-1440.000000,-2120.000000
664,-1760.000000,-2160.000000
665,-2000.000000,-2160.000000
666,-2320.000000,-2160.000000
667,-2560.000000,-2160.000000
668,-2800.000000,-2160.000000
669,-3120.000000,-2080.000000
670,-3280.000000,-2080.000000
671,-3520.000000,-2040.000000
672,-3760.000000,-2000.000000
673,-3920.000000,-1920.000000
674,-4080.000000,-1880.000000
675,-4240.000000,-1800.000000
676,-4400.000000,-1720.000000
677,-4480.000000,-1640.000000
678,-4640.000000,-1560.000000
679,-4800.000000,-1440.000000
680,-4880.000000,-1360.000000
681,-5040.000000,-1240.000000
682,-5120.000000,-1120.000000
683,-5200.000000,-1000.000000
684,-5280.000000,-880.000000
685,-5360.000000,-800.000000
686,-5360.000000,-680.000000
687,-5440.000000,-520.000000
688,-5440.000000,-440.000000
689,-5440.000000,-320.000000
690,-5360.000000,-200.000000
691,-5360.000000,-80.000000
