data/20000101_022112tr.csv

Channel              :,CH1,CH2
Frequency            :,2.513KHz,2.513KHz
Period               :,0.398ms,0.398ms
PK-PK                :,10.64V,4.160V
Average              :,-88.00mV,-57.29mV
Vertical pos         :,160.000000mV,0.000000mV
Probe attenuation    :,1X,1X
Voltage per ADC value:,1.250000mV,0.625000mV
Time interval        :,4.00000uS,4.00000uS

index,CH1_Voltage(mV),CH2_Voltage(mV)
1,3680.000000,1440.000000
2,3840.000000,1360.000000
3,3920.000000,1280.000000
4,4000.000000,1240.000000
5,4080.000000,1120.000000
6,4160.000000,1040.000000
7,4240.000000,960.000000
8,4240.000000,840.000000
9,4240.000000,760.000000
10,4240.000000,640.000000
11,4240.000000,560.000000
12,4160.000000,440.000000
13,4080.000000,320.000000
14,4000.000000,200.000000
15,3920.000000,120.000000
16,3840.000000,0.000000
17,3680.000000,-80.000000
18,3600.000000,-240.000000
19,3440.000000,-360.000000
20,3200.000000,-480.000000
21,3040.000000,-560.000000
22,2880.000000,-680.000000
23,2640.000000,-760.000000
24,2400.000000,-880.000000
25,2160.000000,-1000.000000
26,2000.000000,-1080.000000
27,1680.000000,-1160.000000
28,1440.000000,-1280.000000
29,1200.000000,-1360.000000
30,960.000000,-1400.000000
31,640.000000,-1480.000000
32,400.000000,-1560.000000
33,160.000000,-1600.000000
34,-80.000000,-1680.000000
35,-400.000000,-1720.000000
36,-640.000000,-1760.000000
37,-960.000000,-1800.000000
38,-1200.000000,-1800.000000
39,-1440.000000,-1840.000000
40,-1680.000000,-1840.000000
41,-1920.000000,-1840.000000
42,-2160.000000,-1840.000000
43,-2400.000000,-1800.000000
44,-2560.000000,-1800.000000
45,-2800.000000,-1760.000000
46,-2960.000000,-1760.000000
47,-3120.000000,-1720.000000
48,-3280.000000,-1640.000000
49,-3440.000000,-1600.000000
50,-3600.000000,-1560.000000
51,-3680.000000,-1480.000000
52,-3760.000000,-1400.000000
53,-3840.000000,-1320.000000
54,-3920.000000,-1240.000000
55,-4000.000000,-1160.000000
56,-4000.000000,-1040.000000
57,-4000.000000,-960.000000
58,-4000.000000,-840.000000
59,-4000.000000,-760.000000
60,-3920.000000,-640.000000
61,-3920.000000,-560.000000
62,-3840.000000,-440.000000
63,-3760.000000,-320.000000
64,-3600.000000,-200.000000
65,-3440.000000,-80.000000
66,-3360.000000,40.000000
67,-3200.000000,160.000000
68,-3040.000000,280.000000
69,-2800.000000,400.000000
70,-2640.000000,520.000000
71,-2400.000000,640.000000
72,-2160.000000,720.000000
73,-1920.000000,840.000000
74,-1680.000000,920.000000
75,-1440.000000,1040.000000
76,-1120.000000,1120.000000
77,-880.000000,1200.000000
78,-640.000000,1280.000000
79,-400.000000,1400.000000
80,-80.000000,1440.000000
81,240.000000,1520.000000
82,560.000000,1600.000000
83,800.000000,1640.000000
84,1040.000000,1680.000000
85,1360.000000,1720.000000
86,1680.000000,1760.000000
87,1920.000000,1760.000000
88,2160.000000,1760.000000
89,2480.000000,1800.000000
90,2720.000000,1800.000000
91,2960.000000,1800.000000
92,3200.000000,1800.000000
93,3360.000000,1760.000000
94,3600.000000,1760.000000
95,3760.000000,1720.000000
96,4000.000000,1680.000000
97,4160.000000,1640.000000
98,4320.000000,1560.000000
99,4400.000000,1480.000000
100,4560.000000,1400.000000
101,4640.000000,1360.000000
102,4720.000000,1280.000000
103,4720.000000,1200.000000
104,4720.000000,1080.000000
105,4640.000000,1000.000000
106,4640.000000,880.000000
107,4640.000000,760.000000
108,4640.000000,640.000000
109,4560.000000,520.000000
110,4560.000000,400.000000
111,4480.000000,280.000000
112,4400.000000,160.000000
113,4240.000000,40.000000
114,4160.000000,-80.000000
115,4000.000000,-200.000000
116,3840.000000,-320.000000
117,3680.000000,-440.000000
118,3440.000000,-560.000000
119,3280.000000,-680.000000
120,3040.000000,-800.000000
121,2800.000000,-920.000000
122,2560.000000,-1040.000000
123,2240.000000,-1120.000000
124,2000.000000,-1240.000000
125,1760.000000,-1320.000000
126,1440.000000,-1400.000000
127,1200.000000,-1520.000000
128,880.000000,-1600.000000
129,560.000000,-1640.000000
130,320.000000,-1720.000000
131,0.000000,-1800.000000
132,-320.000000,-1840.000000
133,-560.000000,-1880.000000
134,-880.000000,-1920.000000
135,-1120.000000,-1960.000000
136,-1440.000000,-2000.000000
137,-1760.000000,-2000.000000
138,-2000.000000,-1960.000000
139,-2240.000000,-2000.000000
140,-2480.000000,-2000.000000
141,-2720.000000,-1960.000000
142,-2960.000000,-1960.000000
143,-3120.000000,-1920.000000
144,-3360.000000,-1880.000000
145,-3520.000000,-1840.000000
146,-3680.000000,-1760.000000
147,-3840.000000,-1720.000000
148,-4000.000000,-1640.000000
149,-4080.000000,-1560.000000
150,-4240.000000,-1480.000000
151,-4320.000000,-1400.000000
152,-4320.000000,-1320.000000
153,-4400.000000,-1200.000000
154,-4480.000000,-1120.000000
155,-4560.000000,-960.000000
156,-4560.000000,-880.000000
157,-4560.000000,-760.000000
158,-4560.000000,-640.000000
159,-4480.000000,-560.000000
160,-4480.000000,-400.000000
161,-4320.000000,-320.000000
162,-4240.000000,-160.000000
163,-4080.000000,-80.000000
164,-3920.000000,80.000000
165,-3760.000000,200.000000
166,-3520.000000,320.000000
167,-3280.000000,440.000000
168,-3120.000000,560.000000
169,-2880.000000,680.000000
170,-2640.000000,800.000000
171,-2320.000000,920.000000
172,-2080.000000,1000.000000
173,-1760.000000,1120.000000
174,-1520.000000,1200.000000
175,-1200.000000,1320.000000
176,-880.000000,1400.000000
177,-560.000000,1480.000000
178,-240.000000,1560.000000
179,80.000000,1640.000000
180,320.000000,1680.000000
181,640.000000,1760.000000
182,960.000000,1800.000000
183,1280.000000,1840.000000
184,1600.000000,1920.000000
185,1920.000000,1920.000000
186,2160.000000,1920.000000
187,2480.000000,1960.000000
188,2720.000000,1960.000000
189,3040.000000,1960.000000
190,3280.000000,1920.000000
191,3520.000000,1920.000000
192,3760.000000,1880.000000
193,3920.000000,1840.000000
194,4160.000000,1800.000000
195,4320.000000,1760.000000
196,4480.000000,1680.000000
197,4640.000000,1640.000000
198,4720.000000,1560.000000
199,4720.000000,1480.000000
200,4720.000000,1360.000000
201,4720.000000,1280.000000
202,4720.000000,1160.000000
203,4720.000000,1040.000000
204,4640.000000,960.000000
205,4640.000000,800.000000
206,4640.000000,680.000000
207,4640.000000,560.000000
208,4560.000000,440.000000
209,4480.000000,320.000000
210,4400.000000,200.000000
211,4320.000000,40.000000
212,4160.000000,-80.000000
213,4000.000000,-240.000000
214,3840.000000,-360.000000
215,3680.000000,-480.000000
216,3440.000000,-600.000000
217,3200.000000,-760.000000
218,2960.000000,-880.000000
219,2720.000000,-1000.000000
220,2480.000000,-1120.000000
221,2160.000000,-1240.000000
222,1920.000000,-1320.000000
223,1600.000000,-1440.000000
224,1360.000000,-1520.000000
225,1040.000000,-1640.000000
226,720.000000,-1720.000000
227,400.000000,-1800.000000
228,80.000000,-1840.000000
229,-160.000000,-1920.000000
230,-480.000000,-1960.000000
231,-800.000000,-2040.000000
232,-1120.000000,-2080.000000
233,-1440.000000,-2080.000000
234,-1760.000000,-2120.000000
235,-2000.000000,-2120.000000
236,-2320.000000,-2120.000000
237,-2560.000000,-2120.000000
238,-2800.000000,-2120.000000
239,-3040.000000,-2120.000000
240,-3280.000000,-2080.000000
241,-3520.000000,-2040.000000
242,-3760.000000,-2000.000000
243,-3920.000000,-1920.000000
244,-4080.000000,-1880.000000
245,-4240.000000,-1800.000000
246,-4400.000000,-1720.000000
247,-4560.000000,-1640.000000
248,-4640.000000,-1560.000000
249,-4800.000000,-1480.000000
250,-4960.000000,-1360.000000
251,-5120.000000,-1280.000000
252,-5200.000000,-1160.000000
253,-5360.000000,-1040.000000
254,-5440.000000,-920.000000
255,-5520.000000,-840.000000
256,-5600.000000,-720.000000
257,-5680.000000,-600.000000
258,-5760.000000,-480.000000
259,-5760.000000,-360.000000
260,-5840.000000,-280.000000
261,-5840.000000,-160.000000
262,-5840.000000,-40.000000
263,-5760.000000,40.000000
264,-5680.000000,160.000000
265,-5600.000000,280.000000
266,-5520.000000,400.000000
267,-5360.000000,440.000000
268,-5280.000000,560.000000
269,-5040.000000,640.000000
270,-4800.000000,760.000000
271,-4560.000000,840.000000
272,-4240.000000,920.000000
273,-3840.000000,1000.000000
274,-3520.000000,1080.000000
275,-3200.000000,1160.000000
276,-2880.000000,1240.000000
277,-2480.000000,1320.000000
278,-2160.000000,1360.000000
279,-1840.000000,1440.000000
280,-1440.000000,1480.000000
281,-1120.000000,1560.000000
282,-800.000000,1600.000000
283,-480.000000,1640.000000
284,-160.000000,1680.000000
285,160.000000,1720.000000
286,480.000000,1720.000000
287,800.000000,1760.000000
288,1120.000000,1760.000000
289,1440.000000,1760.000000
290,1680.000000,1760.000000
291,1920.000000,1760.000000
292,2240.000000,1760.000000
293,2480.000000,1720.000000
294,2720.000000,1720.000000
295,2880.000000,1680.000000
296,3120.000000,1640.000000
297,3280.000000,1600.000000
298,3520.000000,1520.000000
299,3680.000000,1480.000000
300,3760.000000,1400.000000
301,3920.000000,1320.000000
302,4000.000000,1280.000000
303,4080.000000,1160.000000
304,4160.000000,1080.000000
305,4240.000000,1000.000000
306,4240.000000,920.000000
307,4320.000000,800.000000
308,4320.000000,720.000000
309,4240.000000,600.000000
310,4240.000000,480.000000
311,4160.000000,360.000000
312,4080.000000,280.000000
313,4000.000000,160.000000
314,3920.000000,40.000000
315,3760.000000,-80.000000
316,3680.000000,-200.000000
317,3520.000000,-280.000000
318,3360.000000,-400.000000
319,3200.000000,-520.000000
320,2960.000000,-640.000000
321,2800.000000,-720.000000
322,2560.000000,-840.000000
323,2320.000000,-960.000000
324,2080.000000,-1040.000000
325,1840.000000,-1160.000000
326,1600.000000,-1240.000000
327,1280.000000,-1320.000000
328,1040.000000,-1360.000000
329,800.000000,-1480.000000
330,560.000000,-1520.000000
331,240.000000,-1600.000000
332,0.000000,-1640.000000
333,-240.000000,-1720.000000
334,-560.000000,-1760.000000
335,-800.000000,-1800.000000
336,-1120.000000,-1800.000000
337,-1360.000000,-1840.000000
338,-1600.000000,-1840.000000
339,-1840.000000,-1840.000000
340,-2080.000000,-1840.000000
341,-2320.000000,-1840.000000
342,-2480.000000,-1840.000000
343,-2720.000000,-1800.000000
344,-2880.000000,-1760.000000
345,-3120.000000,-1720.000000
346,-3280.000000,-1680.000000
347,-3440.000000,-1640.000000
348,-3520.000000,-1560.000000
349,-3680.000000,-1520.000000
350,-3760.000000,-1440.000000
351,-3840.000000,-1360.000000
352,-3920.000000,-1280.000000
353,-4000.000000,-1200.000000
354,-4000.000000,-1080.000000
355,-4080.000000,-1000.000000
356,-4080.000000,-920.000000
357,-4000.000000,-800.000000
358,-4000.000000,-680.000000
359,-3920.000000,-600.000000
360,-3840.000000,-480.000000
361,-3760.000000,-360.000000
362,-3680.000000,-240.000000
363,-3520.000000,-120.000000
364,-3440.000000,0.000000
365,-3280.000000,120.000000
366,-3040.000000,240.000000
367,-2880.000000,360.000000
368,-2720.000000,480.000000
369,-2480.000000,600.000000
370,-2240.000000,680.000000
371,-2000.000000,800.000000
372,-1760.000000,920.000000
373,-1520.000000,1000.000000
374,-1280.000000,1080.000000
375,-960.000000,1200.000000
376,-720.000000,1280.000000
377,-480.000000,1360.000000
378,-160.000000,1440.000000
379,80.000000,1520.000000
380,400.000000,1560.000000
381,720.000000,1640.000000
382,960.000000,1680.000000
383,1280.000000,1720.000000
384,1520.000000,1760.000000
385,1840.000000,1800.000000
386,2080.000000,1800.000000
387,2320.000000,1800.000000
388,2640.000000,1800.000000
389,2880.000000,1840.000000
390,3120.000000,1800.000000
391,3360.000000,1800.000000
392,3520.000000,1760.000000
393,3760.000000,1720.000000
394,3920.000000,1680.000000
395,4080.000000,1640.000000
396,4240.000000,1600.000000
397,4400.000000,1520.000000
398,4560.000000,1480.000000
399,4640.000000,1400.000000
400,4720.000000,1320.000000
401,4720.000000,1240.000000
402,4720.000000,1120.000000
403,4640.000000,1040.000000
404,4640.000000,920.000000
405,4640.000000,800.000000
406,4640.000000,720.000000
407,4640.000000,600.000000
408,4640.000000,480.000000
409,4560.000000,360.000000
410,4480.000000,240.000000
411,4320.000000,120.000000
412,4160.000000,-40.000000
413,4080.000000,-160.000000
414,3920.000000,-280.000000
415,3680.000000,-400.000000
416,3520.000000,-520.000000
417,3360.000000,-640.000000
418,3120.000000,-760.000000
419,2880.000000,-880.000000
420,2640.000000,-1000.000000
421,2400.000000,-1080.000000
422,2080.000000,-1200.000000
423,1840.000000,-1280.000000
424,1520.000000,-1400.000000
425,1280.000000,-1480.000000
426,960.000000,-1560.000000
427,720.000000,-1640.000000
428,400.000000,-1720.000000
429,80.000000,-1800.000000
430,-160.000000,-1840.000000
431,-480.000000,-1880.000000
432,-800.000000,-1920.000000
433,-1040.000000,-1960.000000
434,-1360.000000,-2000.000000
435,-1680.000000,-2000.000000
436,-1920.000000,-2000.000000
437,-2160.000000,-2000.000000
438,-2400.000000,-2000.000000
439,-2640.000000,-2000.000000
440,-2880.000000,-1960.000000
441,-3120.000000,-1960.000000
442,-3280.000000,-1920.000000
443,-3520.000000,-1880.000000
444,-3680.000000,-1800.000000
445,-3840.000000,-1760.000000
446,-4000.000000,-1680.000000
447,-4080.000000,-1600.000000
448,-4160.000000,-1520.000000
449,-4320.000000,-1440.000000
450,-4400.000000,-1360.000000
451,-4480.000000,-1240.000000
452,-4560.000000,-1120.000000
453,-4560.000000,-1040.000000
454,-4640.000000,-920.000000
455,-4640.000000,-840.000000
456,-4640.000000,-720.000000
457,-4640.000000,-600.000000
458,-4560.000000,-480.000000
459,-4480.000000,-360.000000
460,-4400.000000,-240.000000
461,-4240.000000,-120.000000
462,-4080.000000,0.000000
463,-3920.000000,120.000000
464,-3760.000000,280.000000
465,-3520.000000,360.000000
466,-3280.000000,520.000000
467,-3040.000000,600.000000
468,-2800.000000,720.000000
469,-2560.000000,840.000000
470,-2320.000000,960.000000
471,-2000.000000,1080.000000
472,-1680.000000,1160.000000
473,-1440.000000,1280.000000
474,-1120.000000,1360.000000
475,-800.000000,1440.000000
476,-480.000000,1520.000000
477,-160.000000,1600.000000
478,160.000000,1680.000000
479,480.000000,1760.000000
480,800.000000,1800.000000
481,1120.000000,1840.000000
482,1360.000000,1880.000000
483,1680.000000,1880.000000
484,2000.000000,1920.000000
485,2320.000000,1960.000000
486,2560.000000,1960.000000
487,2800.000000,1960.000000
488,3120.000000,1960.000000
489,3360.000000,1920.000000
490,3600.000000,1880.000000
491,3840.000000,1880.000000
492,4000.000000,1840.000000
493,4240.000000,1760.000000
494,4400.000000,1720.000000
495,4560.000000,1680.000000
496,4720.000000,1600.000000
497,4720.000000,1520.000000
498,4720.000000,1440.000000
499,4720.000000,1320.000000
500,4720.000000,1240.000000
501,4720.000000,1120.000000
502,4720.000000,1000.000000
503,4640.000000,880.000000
504,4640.000000,760.000000
505,4640.000000,640.000000
506,4560.000000,520.000000
507,4560.000000,400.000000
508,4480.000000,240.000000
509,4400.000000,120.000000
510,4240.000000,0.000000
511,4080.000000,-160.000000
512,3920.000000,-280.000000
513,3760.000000,-400.000000
514,3520.000000,-560.000000
515,3360.000000,-680.000000
516,3120.000000,-800.000000
517,2880.000000,-920.000000
518,2640.000000,-1040.000000
519,2400.000000,-1160.000000
520,2080.000000,-1280.000000
521,1760.000000,-1400.000000
522,1520.000000,-1480.000000
523,1200.000000,-1560.000000
524,880.000000,-1680.000000
525,560.000000,-1760.000000
526,320.000000,-1800.000000
527,-80.000000,-1880.000000
528,-400.000000,-1960.000000
529,-640.000000,-2000.000000
530,-960.000000,-2040.000000
531,-1280.000000,-2080.000000
532,-1600.000000,-2120.000000
533,-1840.000000,-2120.000000
534,-2160.000000,-2160.000000
535,-2400.000000,-2120.000000
536,-2640.000000,-2120.000000
537,-2960.000000,-2120.000000
538,-3200.000000,-2080.000000
539,-3440.000000,-2080.000000
540,-3600.000000,-2040.000000
541,-3840.000000,-1960.000000
542,-4000.000000,-1920.000000
543,-4160.000000,-1840.000000
544,-4320.000000,-1800.000000
545,-4480.000000,-1680.000000
546,-4560.000000,-1600.000000
547,-4800.000000,-1520.000000
548,-4880.000000,-1440.000000
549,-5040.000000,-1320.000000
550,-5200.000000,-1200.000000
551,-5280.000000,-1120.000000
552,-5360.000000,-1000.000000
553,-5520.000000,-880.000000
554,-5600.000000,-760.000000
555,-5680.000000,-640.000000
556,-5760.000000,-560.000000
557,-5760.000000,-440.000000
558,-5840.000000,-320.000000
559,-5840.000000,-200.000000
560,-5840.000000,-120.000000
561,-5840.000000,0.000000
562,-5760.000000,120.000000
563,-5760.000000,200.000000
564,-5680.000000,320.000000
565,-5520.000000,400.000000
566,-5360.000000,480.000000
567,-5200.000000,600.000000
568,-5040.000000,680.000000
569,-4800.000000,760.000000
570,-4480.000000,840.000000
571,-4160.000000,920.000000
572,-3840.000000,1040.000000
573,-3520.000000,1120.000000
574,-3120.000000,1200.000000
575,-2800.000000,1240.000000
576,-2480.000000,1320.000000
577,-2080.000000,1400.000000
578,-1760.000000,1440.000000
579,-1440.000000,1520.000000
580,-1120.000000,1560.000000
581,-720.000000,1600.000000
582,-400.000000,1640.000000
583,-80.000000,1680.000000
584,240.000000,1720.000000
585,560.000000,1720.000000
586,880.000000,1760.000000
587,1120.000000,1760.000000
588,1440.000000,1760.000000
589,1680.000000,1760.000000
590,2000.000000,1760.000000
591,2240.000000,1720.000000
592,2480.000000,1720.000000
593,2720.000000,1680.000000
594,2880.000000,1640.000000
595,3120.000000,1600.000000
596,3280.000000,1560.000000
597,3520.000000,1480.000000
598,3600.000000,1440.000000
599,3760.000000,1400.000000
600,3840.000000,1320.000000
601,4000.000000,1240.000000
602,4080.000000,1120.000000
603,4160.000000,1040.000000
604,4160.000000,960.000000
605,4240.000000,880.000000
606,4240.000000,760.000000
607,4240.000000,680.000000
608,4240.000000,560.000000
609,4160.000000,440.000000
610,4080.000000,360.000000
611,4080.000000,240.000000
612,3920.000000,120.000000
613,3840.000000,0.000000
614,3680.000000,-120.000000
615,3600.000000,-240.000000
616,3440.000000,-320.000000
617,3280.000000,-440.000000
618,3040.000000,-560.000000
619,2880.000000,-680.000000
620,2640.000000,-760.000000
621,2480.000000,-880.000000
622,2240.000000,-960.000000
623,2000.000000,-1080.000000
624,1760.000000,-1160.000000
625,1520.000000,-1240.000000
626,1200.000000,-1320.000000
627,960.000000,-1400.000000
628,720.000000,-1480.000000
629,480.000000,-1560.000000
630,160.000000,-1600.000000
631,-80.000000,-1640.000000
632,-400.000000,-1720.000000
633,-640.000000,-1760.000000
634,-880.000000,-1800.000000
635,-1120.000000,-1800.000000
636,-1360.000000,-1800.000000
637,-1680.000000,-1840.000000
638,-1920.000000,-1840.000000
639,-2160.000000,-1840.000000
640,-2320.000000,-1800.000000
641,-2560.000000,-1800.000000
642,-2720.000000,-1760.000000
643,-2960.000000,-1760.000000
644,-3120.000000,-1720.000000
645,-3280.000000,-1640.000000
646,-3440.000000,-1600.000000
647,-3600.000000,-1520.000000
648,-3680.000000,-1480.000000
649,-3760.000000,-1400.000000
650,-3840.000000,-1320.000000
651,-3920.000000,-1240.000000
652,-4000.000000,-1160.000000
653,-4000.000000,-1080.000000
654,-4000.000000,-960.000000
655,-4000.000000,-880.000000
656,-4000.000000,-760.000000
657,-3920.000000,-640.000000
658,-3920.000000,-560.000000
659,-3760.000000,-440.000000
660,-3680.000000,-320.000000
661,-3600.000000,-200.000000
662,-3520.000000,-80.000000
663,-3360.000000,40.000000
664,-3200.000000,160.000000
665,-2960.000000,280.000000
666,-2800.000000,400.000000
667,-2640.000000,480.000000
668,-2400.000000,600.000000
669,-2160.000000,720.000000
670,-1920.000000,840.000000
671,-1680.000000,920.000000
672,-1440.000000,1040.000000
673,-1200.000000,1120.000000
674,-960.000000,1200.000000
675,-640.000000,1280.000000
676,-400.000000,1360.000000
677,-80.000000,1440.000000
678,240.000000,1520.000000
679,480.000000,1560.000000
680,720.000000,1640.000000
681,1040.000000,1680.000000
682,1360.000000,1720.000000
683,1600.000000,1760.000000
684,1920.000000,1760.000000
685,2160.000000,1800.000000
686,2400.000000,1800.000000
687,2640.000000,1800.000000
688,2880.000000,1800.000000
689,3120.000000,1800.000000
690,3360.000000,1760.000000
691,3600.000000,1720.000000
692,3760.000000,1720.000000
