data/20000101_022739s.csv

Channel              :,CH1,CH2
Frequency            :,2.556KHz,2.556KHz
Period               :,0.391ms,0.391ms
PK-PK                :,9.760V,4.320V
Average              :,-100.3mV,-54.42mV
Vertical pos         :,160.000000mV,0.000000mV
Probe attenuation    :,1X,1X
Voltage per ADC value:,1.250000mV,0.625000mV
Time interval        :,4.00000uS,4.00000uS

index,CH1_Voltage(mV),CH2_Voltage(mV)
1,4080.000000,-160.000000
2,3920.000000,-280.000000
3,3760.000000,-440.000000
4,3600.000000,-560.000000
5,3360.000000,-680.000000
6,3200.000000,-840.000000
7,2960.000000,-960.000000
8,2720.000000,-1080.000000
9,2400.000000,-1200.000000
10,2160.000000,-1320.000000
11,1840.000000,-1440.000000
12,1600.000000,-1520.000000
13,1280.000000,-1600.000000
14,960.000000,-1720.000000
15,640.000000,-1800.000000
16,320.000000,-1880.000000
17,80.000000,-1920.000000
18,-240.000000,-2000.000000
19,-560.000000,-2040.000000
20,-880.000000,-2080.000000
21,-1200.000000,-2160.000000
22,-1520.000000,-2160.000000
23,-1760.000000,-2160.000000
24,-2080.000000,-2160.000000
25,-2320.000000,-2160.000000
26,-2560.000000,-2160.000000
27,-2880.000000,-2120.000000
28,-3120.000000,-2080.000000
29,-3360.000000,-2080.000000
30,-3520.000000,-2000.000000
31,-3760.000000,-2000.000000
32,-3920.000000,-1920.000000
33,-4080.000000,-1840.000000
34,-4240.000000,-1760.000000
35,-4400.000000,-1680.000000
36,-4480.000000,-1600.000000
37,-4560.000000,-1520.000000
38,-4720.000000,-1400.000000
39,-4800.000000,-1320.000000
40,-4880.000000,-1200.000000
41,-4960.000000,-1080.000000
42,-5040.000000,-960.000000
43,-5040.000000,-840.000000
44,-5040.000000,-720.000000
45,-5040.000000,-600.000000
46,-5040.000000,-440.000000
47,-5040.000000,-360.000000
48,-4960.000000,-240.000000
49,-4880.000000,-120.000000
50,-4720.000000,40.000000
51,-4560.000000,160.000000
52,-4320.000000,280.000000
53,-4080.000000,400.000000
54,-3840.000000,520.000000
55,-3600.000000,640.000000
56,-3360.000000,760.000000
57,-3040.000000,880.000000
58,-2720.000000,1000.000000
59,-2480.000000,1120.000000
60,-2160.000000,1200.000000
61,-1840.000000,1320.000000
62,-1520.000000,1440.000000
63,-1120.000000,1520.000000
64,-800.000000,1600.000000
65,-480.000000,1680.000000
66,-160.000000,1720.000000
67,240.000000,1800.000000
68,560.000000,1880.000000
69,880.000000,1920.000000
70,1200.000000,1960.000000
71,1520.000000,2000.000000
72,1840.000000,2000.000000
73,2160.000000,2040.000000
74,2480.000000,2040.000000
75,2800.000000,2040.000000
76,3120.000000,2040.000000
77,3360.000000,2040.000000
78,3680.000000,2000.000000
79,3920.000000,1960.000000
80,4080.000000,1920.000000
81,4320.000000,1880.000000
82,4560.000000,1840.000000
83,4640.000000,1760.000000
84,4640.000000,1680.000000
85,4640.000000,1640.000000
86,4640.000000,1520.000000
87,4640.000000,1400.000000
88,4560.000000,1320.000000
89,4560.000000,1160.000000
90,4560.000000,1040.000000
91,4480.000000,920.000000
92,4480.000000,800.000000
93,4480.000000,680.000000
94,4480.000000,520.000000
95,4400.000000,400.000000
96,4400.000000,240.000000
97,4320.000000,120.000000
98,4160.000000,-80.000000
99,4080.000000,-160.000000
100,3920.000000,-320.000000
101,3760.000000,-440.000000
102,3520.000000,-600.000000
103,3360.000000,-720.000000
104,3120.000000,-840.000000
105,2880.000000,-960.000000
106,2640.000000,-1080.000000
107,2400.000000,-1240.000000
108,2080.000000,-1320.000000
109,1840.000000,-1440.000000
110,1520.000000,-1560.000000
111,1200.000000,-1640.000000
112,880.000000,-1720.000000
113,640.000000,-1800.000000
114,320.000000,-1880.000000
115,0.000000,-1960.000000
116,-320.000000,-2000.000000
117,-640.000000,-2040.000000
118,-960.000000,-2080.000000
119,-1200.000000,-2120.000000
120,-1520.000000,-2160.000000
121,-1840.000000,-2160.000000
122,-2080.000000,-2160.000000
123,-2400.000000,-2160.000000
124,-2640.000000,-2160.000000
125,-2960.000000,-2120.000000
126,-3120.000000,-2120.000000
127,-3360.000000,-2080.000000
128,-3600.000000,-2040.000000
129,-3760.000000,-1960.000000
130,-4000.000000,-1920.000000
131,-4160.000000,-1840.000000
132,-4240.000000,-1760.000000
133,-4400.000000,-1680.000000
134,-4480.000000,-1600.000000
135,-4640.000000,-1480.000000
136,-4720.000000,-1400.000000
137,-4800.000000,-1280.000000
138,-4880.000000,-1160.000000
139,-4960.000000,-1040.000000
140,-5040.000000,-920.000000
141,-5040.000000,-840.000000
142,-5040.000000,-680.000000
143,-5120.000000,-560.000000
144,-5040.000000,-440.000000
145,-5040.000000,-320.000000
146,-4960.000000,-200.000000
147,-4800.000000,-80.000000
148,-4720.000000,40.000000
149,-4480.000000,160.000000
150,-4320.000000,280.000000
151,-4080.000000,440.000000
152,-3840.000000,560.000000
153,-3520.000000,680.000000
154,-3280.000000,800.000000
155,-2960.000000,920.000000
156,-2720.000000,1000.000000
157,-2400.000000,1120.000000
158,-2080.000000,1240.000000
159,-1760.000000,1320.000000
160,-1440.000000,1440.000000
161,-1040.000000,1520.000000
162,-720.000000,1600.000000
163,-400.000000,1680.000000
164,-80.000000,1760.000000
165,240.000000,1800.000000
166,640.000000,1880.000000
167,960.000000,1920.000000
168,1280.000000,1960.000000
169,1600.000000,2000.000000
170,1920.000000,2040.000000
171,2240.000000,2040.000000
172,2560.000000,2040.000000
173,2880.000000,2040.000000
174,3120.000000,2040.000000
175,3440.000000,2000.000000
176,3680.000000,2000.000000
177,3920.000000,1960.000000
178,4160.000000,1920.000000
179,4400.000000,1880.000000
180,4560.000000,1800.000000
181,4640.000000,1760.000000
182,4640.000000,1680.000000
183,4640.000000,1600.000000
184,4640.000000,1480.000000
185,4560.000000,1400.000000
186,4560.000000,1280.000000
187,4560.000000,1160.000000
188,4560.000000,1040.000000
189,4480.000000,920.000000
190,4480.000000,760.000000
191,4480.000000,640.000000
192,4480.000000,480.000000
193,4400.000000,360.000000
194,4400.000000,200.000000
195,4320.000000,80.000000
196,4160.000000,-40.000000
197,4000.000000,-200.000000
198,3840.000000,-360.000000
199,3680.000000,-480.000000
200,3520.000000,-640.000000
201,3280.000000,-760.000000
202,3040.000000,-880.000000
203,2800.000000,-1000.000000
204,2560.000000,-1120.000000
205,2320.000000,-1240.000000
206,2080.000000,-1360.000000
207,1760.000000,-1480.000000
208,1440.000000,-1560.000000
209,1200.000000,-1680.000000
210,880.000000,-1720.000000
211,560.000000,-1840.000000
212,240.000000,-1880.000000
213,-80.000000,-1960.000000
214,-400.000000,-2000.000000
215,-720.000000,-2040.000000
216,-960.000000,-2080.000000
217,-1280.000000,-2120.000000
218,-1600.000000,-2160.000000
219,-1920.000000,-2160.000000
220,-2160.000000,-2160.000000
221,-2480.000000,-2160.000000
222,-2720.000000,-2160.000000
223,-2960.000000,-2160.000000
224,-3200.000000,-2080.000000
225,-3440.000000,-2080.000000
226,-3600.000000,-2000.000000
227,-3840.000000,-1960.000000
228,-4000.000000,-1880.000000
229,-4160.000000,-1840.000000
230,-4320.000000,-1760.000000
231,-4400.000000,-1680.000000
232,-4560.000000,-1560.000000
233,-4640.000000,-1480.000000
234,-4720.000000,-1360.000000
235,-4800.000000,-1240.000000
236,-4960.000000,-1160.000000
237,-4960.000000,-1040.000000
238,-5040.000000,-920.000000
239,-5040.000000,-800.000000
240,-5120.000000,-680.000000
241,-5040.000000,-560.000000
242,-5040.000000,-400.000000
243,-4960.000000,-280.000000
244,-4880.000000,-160.000000
245,-4800.000000,-40.000000
246,-4640.000000,80.000000
247,-4480.000000,200.000000
248,-4240.000000,320.000000
249,-4000.000000,440.000000
250,-3760.000000,600.000000
251,-3520.000000,680.000000
252,-3200.000000,800.000000
253,-2960.000000,920.000000
254,-2640.000000,1040.000000
255,-2320.000000,1160.000000
256,-2000.000000,1280.000000
257,-1680.000000,1360.000000
258,-1360.000000,1440.000000
259,-960.000000,1600.000000
260,-640.000000,1640.000000
261,-320.000000,1720.000000
262,0.000000,1760.000000
263,320.000000,1840.000000
264,720.000000,1880.000000
265,1040.000000,1920.000000
266,1360.000000,1960.000000
267,1680.000000,2000.000000
268,2000.000000,2040.000000
269,2320.000000,2040.000000
270,2640.000000,2040.000000
271,2880.000000,2040.000000
272,3200.000000,2040.000000
273,3440.000000,2000.000000
274,3760.000000,1960.000000
275,4000.000000,1960.000000
276,4160.000000,1920.000000
277,4400.000000,1840.000000
278,4560.000000,1800.000000
279,4640.000000,1720.000000
280,4640.000000,1640.000000
281,4640.000000,1560.000000
282,4640.000000,1480.000000
283,4640.000000,1360.000000
284,4560.000000,1280.000000
285,4560.000000,1120.000000
286,4560.000000,1000.000000
287,4480.000000,880.000000
288,4480.000000,760.000000
289,4480.000000,600.000000
290,4400.000000,480.000000
291,4400.000000,320.000000
292,4320.000000,200.000000
293,4240.000000,40.000000
294,4160.000000,-80.000000
295,4000.000000,-240.000000
296,3840.000000,-360.000000
297,3680.000000,-520.000000
298,3440.000000,-640.000000
299,3280.000000,-800.000000
300,3040.000000,-880.000000
301,2800.000000,-1040.000000
302,2560.000000,-1120.000000
303,2240.000000,-1280.000000
304,2000.000000,-1360.000000
305,1680.000000,-1480.000000
306,1440.000000,-1560.000000
307,1120.000000,-1680.000000
308,800.000000,-1760.000000
309,480.000000,-1840.000000
310,160.000000,-1880.000000
311,-160.000000,-1960.000000
312,-480.000000,-2040.000000
313,-720.000000,-2080.000000
314,-1040.000000,-2120.000000
315,-1360.000000,-2120.000000
316,-1680.000000,-2160.000000
317,-1920.000000,-2160.000000
318,-2240.000000,-2160.000000
319,-2480.000000,-2160.000000
320,-2800.000000,-2160.000000
321,-3040.000000,-2120.000000
322,-3280.000000,-2080.000000
323,-3520.000000,-2080.000000
324,-3680.000000,-2000.000000
325,-3840.000000,-1920.000000
326,-4000.000000,-1880.000000
327,-4240.000000,-1800.000000
328,-4320.000000,-1720.000000
329,-4480.000000,-1640.000000
330,-4560.000000,-1560.000000
331,-4640.000000,-1440.000000
332,-4800.000000,-1360.000000
333,-4880.000000,-1240.000000
334,-4880.000000,-1120.000000
335,-4960.000000,-1040.000000
336,-5040.000000,-880.000000
337,-5040.000000,-760.000000
338,-5120.000000,-640.000000
339,-5120.000000,-520.000000
340,-5040.000000,-400.000000
341,-4960.000000,-280.000000
342,-4880.000000,-160.000000
343,-4720.000000,0.000000
344,-4640.000000,120.000000
345,-4400.000000,200.000000
346,-4240.000000,320.000000
347,-3920.000000,480.000000
348,-3680.000000,600.000000
349,-3440.000000,720.000000
350,-3120.000000,840.000000
351,-2880.000000,960.000000
352,-2560.000000,1040.000000
353,-2240.000000,1160.000000
354,-1920.000000,1280.000000
355,-1600.000000,1360.000000
356,-1280.000000,1480.000000
357,-960.000000,1560.000000
358,-560.000000,1640.000000
359,-240.000000,1720.000000
360,80.000000,1800.000000
361,400.000000,1840.000000
362,720.000000,1880.000000
363,1120.000000,1920.000000
364,1440.000000,2000.000000
365,1760.000000,2000.000000
366,2080.000000,2000.000000
367,2400.000000,2040.000000
368,2640.000000,2040.000000
369,2960.000000,2040.000000
370,3280.000000,2040.000000
371,3520.000000,2000.000000
372,3760.000000,1960.000000
373,4000.000000,1960.000000
374,4240.000000,1920.000000
375,4480.000000,1840.000000
376,4560.000000,1800.000000
377,4640.000000,1720.000000
378,4640.000000,1640.000000
379,4640.000000,1560.000000
380,4640.000000,1440.000000
381,4560.000000,1320.000000
382,4560.000000,1240.000000
383,4560.000000,1120.000000
384,4560.000000,1000.000000
385,4480.000000,840.000000
386,4480.000000,720.000000
387,4480.000000,600.000000
388,4400.000000,440.000000
389,4400.000000,280.000000
390,4320.000000,160.000000
391,4240.000000,40.000000
392,4080.000000,-120.000000
393,3920.000000,-280.000000
394,3760.000000,-400.000000
395,3600.000000,-520.000000
396,3440.000000,-680.000000
397,3200.000000,-800.000000
398,2960.000000,-960.000000
399,2720.000000,-1040.000000
400,2480.000000,-1160.000000
401,2240.000000,-1280.000000
402,1920.000000,-1400.000000
403,1600.000000,-1520.000000
404,1360.000000,-1600.000000
405,1040.000000,-1680.000000
406,720.000000,-1760.000000
407,400.000000,-1840.000000
408,80.000000,-1920.000000
409,-160.000000,-1960.000000
410,-480.000000,-2040.000000
411,-800.000000,-2080.000000
412,-1120.000000,-2120.000000
413,-1440.000000,-2160.000000
414,-1680.000000,-2160.000000
415,-2000.000000,-2160.000000
416,-2320.000000,-2160.000000
417,-2560.000000,-2160.000000
418,-2800.000000,-2120.000000
419,-3040.000000,-2120.000000
420,-3280.000000,-2080.000000
421,-3520.000000,-2000.000000
422,-3680.000000,-2000.000000
423,-3920.000000,-1920.000000
424,-4080.000000,-1880.000000
425,-4240.000000,-1800.000000
426,-4320.000000,-1720.000000
427,-4480.000000,-1600.000000
428,-4560.000000,-1520.000000
429,-4720.000000,-1440.000000
430,-4800.000000,-1320.000000
431,-4880.000000,-1200.000000
432,-4960.000000,-1080.000000
433,-5040.000000,-1000.000000
434,-5040.000000,-880.000000
435,-5120.000000,-760.000000
436,-5120.000000,-640.000000
437,-5040.000000,-480.000000
438,-5040.000000,-360.000000
439,-4960.000000,-240.000000
440,-4880.000000,-120.000000
441,-4800.000000,0.000000
442,-4560.000000,120.000000
443,-4400.000000,240.000000
444,-4160.000000,400.000000
445,-3920.000000,480.000000
446,-3680.000000,640.000000
447,-3360.000000,760.000000
448,-3120.000000,880.000000
449,-2800.000000,1000.000000
450,-2480.000000,1080.000000
451,-2160.000000,1200.000000
452,-1840.000000,1280.000000
453,-1520.000000,1400.000000
454,-1200.000000,1480.000000
455,-880.000000,1560.000000
456,-560.000000,1640.000000
457,-160.000000,1720.000000
458,160.000000,1800.000000
459,480.000000,1840.000000
460,800.000000,1920.000000
461,1120.000000,1960.000000
462,1520.000000,2000.000000
463,1840.000000,2000.000000
464,2160.000000,2040.000000
465,2400.000000,2040.000000
466,2720.000000,2040.000000
467,3040.000000,2040.000000
468,3280.000000,2040.000000
469,3600.000000,2000.000000
470,3840.000000,1960.000000
471,4080.000000,1920.000000
472,4320.000000,1880.000000
473,4480.000000,1840.000000
474,4560.000000,1800.000000
475,4640.000000,1720.000000
476,4640.000000,1600.000000
477,4640.000000,1520.000000
478,4640.000000,1440.000000
479,4560.000000,1320.000000
480,4560.000000,1240.000000
481,4560.000000,1080.000000
482,4560.000000,960.000000
483,4480.000000,800.000000
484,4480.000000,680.000000
485,4480.000000,560.000000
486,4400.000000,400.000000
487,4400.000000,280.000000
488,4320.000000,120.000000
489,4240.000000,0.000000
490,4080.000000,-160.000000
491,3920.000000,-280.000000
492,3760.000000,-440.000000
493,3600.000000,-560.000000
494,3360.000000,-720.000000
495,3200.000000,-840.000000
496,2960.000000,-960.000000
497,2640.000000,-1080.000000
498,2400.000000,-1200.000000
499,2160.000000,-1320.000000
500,1840.000000,-1440.000000
501,1600.000000,-1520.000000
502,1280.000000,-1600.000000
503,960.000000,-1720.000000
504,640.000000,-1800.000000
505,400.000000,-1880.000000
506,80.000000,-1920.000000
507,-240.000000,-2000.000000
508,-560.000000,-2040.000000
509,-880.000000,-2080.000000
510,-1200.000000,-2120.000000
511,-1520.000000,-2160.000000
512,-1760.000000,-2160.000000
513,-2080.000000,-2160.000000
514,-2320.000000,-2160.000000
515,-2640.000000,-2160.000000
516,-2880.000000,-2120.000000
517,-3120.000000,-2120.000000
518,-3360.000000,-2080.000000
519,-3600.000000,-2040.000000
520,-3760.000000,-1960.000000
521,-3920.000000,-1920.000000
522,-4080.000000,-1840.000000
523,-4240.000000,-1840.000000
524,-4400.000000,-1720.000000
525,-4480.000000,-1600.000000
526,-4640.000000,-1520.000000
527,-4720.000000,-1400.000000
528,-4800.000000,-1320.000000
529,-4880.000000,-1200.000000
530,-4960.000000,-1080.000000
531,-5040.000000,-960.000000
532,-5040.000000,-840.000000
533,-5120.000000,-720.000000
534,-5040.000000,-600.000000
535,-5040.000000,-480.000000
536,-5040.000000,-360.000000
537,-4960.000000,-240.000000
538,-4880.000000,-80.000000
539,-4720.000000,40.000000
540,-4560.000000,160.000000
541,-4320.000000,280.000000
542,-4080.000000,400.000000
543,-3840.000000,520.000000
544,-3600.000000,640.000000
545,-3280.000000,760.000000
546,-3040.000000,880.000000
547,-2720.000000,1000.000000
548,-2400.000000,1120.000000
549,-2080.000000,1240.000000
550,-1760.000000,1320.000000
551,-1440.000000,1400.000000
552,-1120.000000,1520.000000
553,-800.000000,1600.000000
554,-480.000000,1680.000000
555,-80.000000,1720.000000
556,240.000000,1800.000000
557,560.000000,1880.000000
558,880.000000,1920.000000
559,1200.000000,1960.000000
560,1600.000000,2000.000000
561,1840.000000,2000.000000
562,2240.000000,2040.000000
563,2480.000000,2040.000000
564,2800.000000,2040.000000
565,3120.000000,2040.000000
566,3360.000000,2000.000000
567,3680.000000,2000.000000
568,3920.000000,2000.000000
569,4080.000000,1920.000000
570,4320.000000,1880.000000
571,4560.000000,1840.000000
572,4640.000000,1760.000000
573,4640.000000,1680.000000
574,4640.000000,1600.000000
575,4640.000000,1520.000000
576,4640.000000,1400.000000
577,4560.000000,1280.000000
578,4560.000000,1160.000000
579,4560.000000,1040.000000
580,4560.000000,920.000000
581,4480.000000,800.000000
582,4480.000000,640.000000
583,4480.000000,520.000000
584,4400.000000,400.000000
585,4400.000000,240.000000
586,4320.000000,80.000000
587,4160.000000,-40.000000
588,4080.000000,-200.000000
589,3920.000000,-320.000000
590,3760.000000,-480.000000
591,3520.000000,-600.000000
592,3360.000000,-720.000000
593,3120.000000,-840.000000
594,2880.000000,-1000.000000
595,2640.000000,-1120.000000
596,2400.000000,-1240.000000
597,2080.000000,-1360.000000
598,1840.000000,-1440.000000
599,1520.000000,-1560.000000
600,1200.000000,-1640.000000
601,880.000000,-1720.000000
602,640.000000,-1800.000000
603,320.000000,-1880.000000
604,0.000000,-1960.000000
605,-320.000000,-2000.000000
606,-640.000000,-2040.000000
607,-960.000000,-2080.000000
608,-1280.000000,-2120.000000
609,-1520.000000,-2160.000000
610,-1840.000000,-2160.000000
611,-2160.000000,-2160.000000
612,-2400.000000,-2160.000000
613,-2720.000000,-2160.000000
614,-2960.000000,-2120.000000
615,-3120.000000,-2080.000000
616,-3360.000000,-2080.000000
617,-3600.000000,-2040.000000
618,-3760.000000,-1960.000000
619,-4000.000000,-1880.000000
620,-4160.000000,-1840.000000
621,-4240.000000,-1760.000000
622,-4400.000000,-1680.000000
623,-4560.000000,-1560.000000
624,-4640.000000,-1480.000000
625,-4720.000000,-1360.000000
626,-4800.000000,-1280.000000
627,-4880.000000,-1160.000000
628,-4960.000000,-1040.000000
629,-5040.000000,-920.000000
630,-5040.000000,-800.000000
631,-5040.000000,-720.000000
632,-5120.000000,-560.000000
633,-5040.000000,-440.000000
634,-5040.000000,-280.000000
635,-4960.000000,-200.000000
636,-4800.000000,-80.000000
637,-4640.000000,40.000000
638,-4480.000000,200.000000
639,-4320.000000,320.000000
640,-4080.000000,440.000000
641,-3840.000000,560.000000
642,-3520.000000,680.000000
643,-3280.000000,800.000000
644,-2960.000000,920.000000
645,-2640.000000,1040.000000
646,-2400.000000,1160.000000
647,-2080.000000,1240.000000
648,-1760.000000,1320.000000
649,-1440.000000,1440.000000
650,-1040.000000,1520.000000
651,-720.000000,1600.000000
652,-400.000000,1680.000000
653,-80.000000,1760.000000
654,320.000000,1800.000000
655,640.000000,1880.000000
656,960.000000,1920.000000
657,1280.000000,1960.000000
658,1600.000000,2000.000000
659,1920.000000,2040.000000
660,2240.000000,2040.000000
661,2560.000000,2040.000000
662,2880.000000,2040.000000
663,3120.000000,2040.000000
664,3440.000000,2000.000000
665,3680.000000,2000.000000
666,3920.000000,1960.000000
667,4160.000000,1920.000000
668,4400.000000,1880.000000
669,4560.000000,1800.000000
670,4640.000000,1760.000000
671,4640.000000,1680.000000
672,4640.000000,1600.000000
673,4640.000000,1480.000000
674,4640.000000,1400.000000
675,4560.000000,1280.000000
676,4560.000000,1160.000000
677,4560.000000,1040.000000
678,4480.000000,920.000000
679,4480.000000,760.000000
680,4480.000000,640.000000
681,4400.000000,480.000000
682,4400.000000,320.000000
683,4400.000000,240.000000
684,4240.000000,80.000000
685,4160.000000,-80.000000
686,4000.000000,-200.000000
687,3840.000000,-360.000000
688,3680.000000,-480.000000
689,3520.000000,-640.000000
690,3280.000000,-760.000000
691,3040.000000,-880.000000
