data/20000101_022321zhenfa.csv

Channel              :,CH1,CH2
Frequency            :,2.513KHz,2.517KHz
Period               :,0.398ms,0.397ms
PK-PK                :,10.40V,4.200V
Average              :,-81.00mV,-57.03mV
Vertical pos         :,160.000000mV,0.000000mV
Probe attenuation    :,1X,1X
Voltage per ADC value:,1.250000mV,0.625000mV
Time interval        :,4.00000uS,4.00000uS

index,CH1_Voltage(mV),CH2_Voltage(mV)
1,3840.000000,1600.000000
2,4000.000000,1520.000000
3,4160.000000,1440.000000
4,4240.000000,1360.000000
5,4320.000000,1280.000000
6,4480.000000,1200.000000
7,4480.000000,1080.000000
8,4560.000000,1000.000000
9,4560.000000,920.000000
10,4640.000000,800.000000
11,4640.000000,720.000000
12,4560.000000,640.000000
13,4560.000000,480.000000
14,4480.000000,360.000000
15,4400.000000,240.000000
16,4320.000000,120.000000
17,4160.000000,0.000000
18,4000.000000,-120.000000
19,3920.000000,-240.000000
20,3680.000000,-360.000000
21,3520.000000,-480.000000
22,3360.000000,-600.000000
23,3120.000000,-720.000000
24,2960.000000,-800.000000
25,2720.000000,-1000.000000
26,2480.000000,-1040.000000
27,2240.000000,-1120.000000
28,1920.000000,-1240.000000
29,1680.000000,-1320.000000
30,1440.000000,-1400.000000
31,1120.000000,-1480.000000
32,800.000000,-1560.000000
33,560.000000,-1640.000000
34,240.000000,-1680.000000
35,0.000000,-1760.000000
36,-320.000000,-1800.000000
37,-560.000000,-1840.000000
38,-880.000000,-1920.000000
39,-1120.000000,-1920.000000
40,-1440.000000,-1920.000000
41,-1680.000000,-1960.000000
42,-1920.000000,-1960.000000
43,-2160.000000,-1960.000000
44,-2400.000000,-1920.000000
45,-2640.000000,-1920.000000
46,-2880.000000,-1880.000000
47,-3040.000000,-1840.000000
48,-3280.000000,-1800.000000
49,-3440.000000,-1760.000000
50,-3600.000000,-1720.000000
51,-3680.000000,-1640.000000
52,-3840.000000,-1560.000000
53,-3920.000000,-1480.000000
54,-4080.000000,-1400.000000
55,-4080.000000,-1320.000000
56,-4160.000000,-1240.000000
57,-4160.000000,-1120.000000
58,-4240.000000,-1040.000000
59,-4240.000000,-920.000000
60,-4160.000000,-840.000000
61,-4160.000000,-680.000000
62,-4080.000000,-600.000000
63,-4000.000000,-480.000000
64,-3920.000000,-360.000000
65,-3840.000000,-200.000000
66,-3680.000000,-80.000000
67,-3520.000000,40.000000
68,-3360.000000,120.000000
69,-3200.000000,280.000000
70,-2960.000000,400.000000
71,-2800.000000,520.000000
72,-2560.000000,640.000000
73,-2320.000000,760.000000
74,-2080.000000,840.000000
75,-1840.000000,960.000000
76,-1520.000000,1080.000000
77,-1280.000000,1160.000000
78,-960.000000,1240.000000
79,-720.000000,1360.000000
80,-400.000000,1440.000000
81,-160.000000,1520.000000
82,160.000000,1600.000000
83,480.000000,1640.000000
84,800.000000,1720.000000
85,1120.000000,1760.000000
86,1360.000000,1800.000000
87,1680.000000,1840.000000
88,2000.000000,1880.000000
89,2240.000000,1920.000000
90,2560.000000,1920.000000
91,2800.000000,1920.000000
92,3040.000000,1920.000000
93,3280.000000,1880.000000
94,3520.000000,1880.000000
95,3760.000000,1840.000000
96,4000.000000,1800.000000
97,4160.000000,1760.000000
98,4320.000000,1720.000000
99,4480.000000,1640.000000
100,4640.000000,1600.000000
101,4720.000000,1520.000000
102,4720.000000,1440.000000
103,4720.000000,1360.000000
104,4720.000000,1240.000000
105,4640.000000,1160.000000
106,4640.000000,1040.000000
107,4640.000000,920.000000
108,4640.000000,840.000000
109,4560.000000,680.000000
110,4560.000000,520.000000
111,4560.000000,440.000000
112,4480.000000,280.000000
113,4400.000000,160.000000
114,4240.000000,40.000000
115,4160.000000,-80.000000
116,4000.000000,-240.000000
117,3840.000000,-360.000000
118,3600.000000,-480.000000
119,3440.000000,-600.000000
120,3200.000000,-720.000000
121,2960.000000,-880.000000
122,2720.000000,-1000.000000
123,2480.000000,-1080.000000
124,2240.000000,-1200.000000
125,1920.000000,-1320.000000
126,1680.000000,-1400.000000
127,1360.000000,-1520.000000
128,1040.000000,-1600.000000
129,800.000000,-1680.000000
130,480.000000,-1760.000000
131,160.000000,-1840.000000
132,-160.000000,-1880.000000
133,-480.000000,-1960.000000
134,-720.000000,-2000.000000
135,-1040.000000,-2040.000000
136,-1360.000000,-2040.000000
137,-1600.000000,-2080.000000
138,-1920.000000,-2120.000000
139,-2160.000000,-2120.000000
140,-2480.000000,-2120.000000
141,-2720.000000,-2080.000000
142,-2960.000000,-2080.000000
143,-3200.000000,-2040.000000
144,-3360.000000,-2000.000000
145,-3600.000000,-1960.000000
146,-3760.000000,-1880.000000
147,-3920.000000,-1840.000000
148,-4080.000000,-1760.000000
149,-4240.000000,-1640.000000
150,-4320.000000,-1600.000000
151,-4480.000000,-1520.000000
152,-4560.000000,-1440.000000
153,-4720.000000,-1320.000000
154,-4800.000000,-1240.000000
155,-4880.000000,-1120.000000
156,-4960.000000,-1000.000000
157,-5040.000000,-920.000000
158,-5040.000000,-760.000000
159,-5120.000000,-680.000000
160,-5120.000000,-560.000000
161,-5120.000000,-400.000000
162,-5120.000000,-320.000000
163,-5040.000000,-160.000000
164,-4960.000000,-80.000000
165,-4880.000000,40.000000
166,-4720.000000,200.000000
167,-4560.000000,280.000000
168,-4400.000000,360.000000
169,-4160.000000,480.000000
170,-3840.000000,600.000000
171,-3600.000000,720.000000
172,-3280.000000,840.000000
173,-3040.000000,960.000000
174,-2720.000000,1040.000000
175,-2400.000000,1120.000000
176,-2080.000000,1240.000000
177,-1760.000000,1320.000000
178,-1440.000000,1400.000000
179,-1120.000000,1480.000000
180,-800.000000,1560.000000
181,-480.000000,1640.000000
182,-80.000000,1720.000000
183,160.000000,1760.000000
184,560.000000,1800.000000
185,880.000000,1840.000000
186,1200.000000,1880.000000
187,1520.000000,1920.000000
188,1760.000000,1920.000000
189,2080.000000,1960.000000
190,2400.000000,1960.000000
191,2640.000000,1960.000000
192,2960.000000,1960.000000
193,3200.000000,1920.000000
194,3440.000000,1880.000000
195,3680.000000,1840.000000
196,3840.000000,1800.000000
197,4080.000000,1760.000000
198,4240.000000,1720.000000
199,4400.000000,1640.000000
200,4560.000000,1560.000000
201,4640.000000,1480.000000
202,4720.000000,1400.000000
203,4720.000000,1320.000000
204,4720.000000,1200.000000
205,4640.000000,1080.000000
206,4640.000000,1000.000000
207,4640.000000,880.000000
208,4640.000000,760.000000
209,4560.000000,640.000000
210,4560.000000,520.000000
211,4560.000000,360.000000
212,4480.000000,240.000000
213,4320.000000,120.000000
214,4240.000000,0.000000
215,4080.000000,-160.000000
216,3920.000000,-280.000000
217,3760.000000,-400.000000
218,3600.000000,-520.000000
219,3360.000000,-680.000000
220,3120.000000,-800.000000
221,2880.000000,-920.000000
222,2640.000000,-1040.000000
223,2400.000000,-1160.000000
224,2080.000000,-1240.000000
225,1840.000000,-1360.000000
226,1600.000000,-1440.000000
227,1280.000000,-1560.000000
228,960.000000,-1640.000000
229,640.000000,-1720.000000
230,320.000000,-1800.000000
231,80.000000,-1840.000000
232,-240.000000,-1920.000000
233,-560.000000,-1960.000000
234,-800.000000,-2000.000000
235,-1120.000000,-2040.000000
236,-1440.000000,-2080.000000
237,-1760.000000,-2080.000000
238,-2000.000000,-2120.000000
239,-2240.000000,-2120.000000
240,-2560.000000,-2080.000000
241,-2800.000000,-2080.000000
242,-3040.000000,-2040.000000
243,-3280.000000,-2040.000000
244,-3440.000000,-2000.000000
245,-3680.000000,-1920.000000
246,-3840.000000,-1880.000000
247,-4000.000000,-1800.000000
248,-4160.000000,-1760.000000
249,-4240.000000,-1680.000000
250,-4400.000000,-1600.000000
251,-4480.000000,-1480.000000
252,-4640.000000,-1400.000000
253,-4720.000000,-1320.000000
254,-4800.000000,-1160.000000
255,-4880.000000,-1080.000000
256,-4960.000000,-1000.000000
257,-5040.000000,-880.000000
258,-5120.000000,-760.000000
259,-5120.000000,-600.000000
260,-5120.000000,-520.000000
261,-5120.000000,-400.000000
262,-5040.000000,-280.000000
263,-5040.000000,-160.000000
264,-4960.000000,-40.000000
265,-4800.000000,80.000000
266,-4640.000000,200.000000
267,-4480.000000,320.000000
268,-4240.000000,440.000000
269,-4000.000000,520.000000
270,-3680.000000,640.000000
271,-3440.000000,760.000000
272,-3120.000000,880.000000
273,-2880.000000,960.000000
274,-2560.000000,1080.000000
275,-2240.000000,1200.000000
276,-1920.000000,1280.000000
277,-1600.000000,1360.000000
278,-1280.000000,1440.000000
279,-960.000000,1520.000000
280,-640.000000,1600.000000
281,-320.000000,1680.000000
282,0.000000,1720.000000
283,320.000000,1800.000000
284,720.000000,1840.000000
285,1040.000000,1880.000000
286,1360.000000,1920.000000
287,1680.000000,1920.000000
288,1920.000000,1960.000000
289,2240.000000,1960.000000
290,2480.000000,1960.000000
291,2800.000000,1920.000000
292,3040.000000,1920.000000
293,3280.000000,1920.000000
294,3520.000000,1880.000000
295,3760.000000,1840.000000
296,3920.000000,1800.000000
297,4160.000000,1720.000000
298,4320.000000,1680.000000
299,4480.000000,1600.000000
300,4640.000000,1520.000000
301,4720.000000,1440.000000
302,4720.000000,1360.000000
303,4720.000000,1280.000000
304,4640.000000,1160.000000
305,4640.000000,1040.000000
306,4640.000000,920.000000
307,4640.000000,840.000000
308,4640.000000,720.000000
309,4560.000000,560.000000
310,4560.000000,440.000000
311,4480.000000,320.000000
312,4400.000000,200.000000
313,4320.000000,40.000000
314,4160.000000,-80.000000
315,4000.000000,-200.000000
316,3840.000000,-320.000000
317,3680.000000,-480.000000
318,3520.000000,-600.000000
319,3280.000000,-720.000000
320,3040.000000,-840.000000
321,2800.000000,-960.000000
322,2560.000000,-1080.000000
323,2240.000000,-1200.000000
324,2000.000000,-1280.000000
325,1680.000000,-1400.000000
326,1440.000000,-1480.000000
327,1120.000000,-1600.000000
328,800.000000,-1680.000000
329,560.000000,-1760.000000
330,240.000000,-1840.000000
331,-80.000000,-1880.000000
332,-400.000000,-1960.000000
333,-720.000000,-2000.000000
334,-960.000000,-2040.000000
335,-1280.000000,-2040.000000
336,-1600.000000,-2120.000000
337,-1840.000000,-2080.000000
338,-2160.000000,-2120.000000
339,-2400.000000,-2080.000000
340,-2640.000000,-2080.000000
341,-2880.000000,-2080.000000
342,-3120.000000,-2040.000000
343,-3360.000000,-2000.000000
344,-3600.000000,-1960.000000
345,-3760.000000,-1920.000000
346,-3920.000000,-1840.000000
347,-4080.000000,-1800.000000
348,-4240.000000,-1720.000000
349,-4320.000000,-1640.000000
350,-4480.000000,-1560.000000
351,-4560.000000,-1440.000000
352,-4720.000000,-1360.000000
353,-4800.000000,-1240.000000
354,-4880.000000,-1160.000000
355,-4960.000000,-1040.000000
356,-5040.000000,-920.000000
357,-5120.000000,-800.000000
358,-5120.000000,-680.000000
359,-5120.000000,-560.000000
360,-5120.000000,-440.000000
361,-5120.000000,-320.000000
362,-5040.000000,-200.000000
363,-4960.000000,-120.000000
364,-4880.000000,0.000000
365,-4800.000000,120.000000
366,-4640.000000,240.000000
367,-4400.000000,360.000000
368,-4160.000000,480.000000
369,-3920.000000,600.000000
370,-3680.000000,720.000000
371,-3360.000000,800.000000
372,-3040.000000,920.000000
373,-2800.000000,1000.000000
374,-2480.000000,1120.000000
375,-2160.000000,1200.000000
376,-1840.000000,1320.000000
377,-1520.000000,1400.000000
378,-1200.000000,1480.000000
379,-880.000000,1560.000000
380,-480.000000,1640.000000
381,-160.000000,1680.000000
382,160.000000,1760.000000
383,480.000000,1800.000000
384,800.000000,1840.000000
385,1120.000000,1880.000000
386,1440.000000,1880.000000
387,1760.000000,1920.000000
388,2000.000000,1960.000000
389,2320.000000,1960.000000
390,2640.000000,1960.000000
391,2880.000000,1920.000000
392,3120.000000,1920.000000
393,3360.000000,1880.000000
394,3600.000000,1840.000000
395,3840.000000,1840.000000
396,4000.000000,1760.000000
397,4240.000000,1720.000000
398,4400.000000,1640.000000
399,4560.000000,1600.000000
400,4640.000000,1520.000000
401,4640.000000,1400.000000
402,4720.000000,1320.000000
403,4720.000000,1240.000000
404,4640.000000,1120.000000
405,4640.000000,1000.000000
406,4640.000000,920.000000
407,4640.000000,800.000000
408,4560.000000,640.000000
409,4560.000000,520.000000
410,4560.000000,400.000000
411,4480.000000,280.000000
412,4400.000000,160.000000
413,4240.000000,0.000000
414,4080.000000,-120.000000
415,4000.000000,-240.000000
416,3760.000000,-400.000000
417,3600.000000,-520.000000
418,3440.000000,-640.000000
419,3200.000000,-760.000000
420,2960.000000,-880.000000
421,2720.000000,-1000.000000
422,2480.000000,-1120.000000
423,2160.000000,-1240.000000
424,1920.000000,-1320.000000
425,1600.000000,-1440.000000
426,1360.000000,-1520.000000
427,1040.000000,-1600.000000
428,720.000000,-1680.000000
429,400.000000,-1760.000000
430,80.000000,-1840.000000
431,-160.000000,-1880.000000
432,-480.000000,-1960.000000
433,-800.000000,-2000.000000
434,-1120.000000,-2040.000000
435,-1360.000000,-2040.000000
436,-1680.000000,-2080.000000
437,-1920.000000,-2080.000000
438,-2240.000000,-2080.000000
439,-2480.000000,-2080.000000
440,-2720.000000,-2080.000000
441,-2960.000000,-2040.000000
442,-3200.000000,-2040.000000
443,-3440.000000,-2000.000000
444,-3600.000000,-1920.000000
445,-3760.000000,-1880.000000
446,-4000.000000,-1840.000000
447,-4080.000000,-1760.000000
448,-4240.000000,-1680.000000
449,-4320.000000,-1600.000000
450,-4480.000000,-1520.000000
451,-4560.000000,-1400.000000
452,-4720.000000,-1320.000000
453,-4800.000000,-1200.000000
454,-4880.000000,-1120.000000
455,-4960.000000,-1000.000000
456,-5040.000000,-880.000000
457,-5040.000000,-760.000000
458,-5120.000000,-640.000000
459,-5120.000000,-520.000000
460,-5120.000000,-400.000000
461,-5040.000000,-280.000000
462,-4960.000000,-160.000000
463,-4880.000000,-80.000000
464,-4800.000000,40.000000
465,-4640.000000,200.000000
466,-4480.000000,280.000000
467,-4240.000000,400.000000
468,-4000.000000,520.000000
469,-3760.000000,640.000000
470,-3440.000000,760.000000
471,-3120.000000,840.000000
472,-2880.000000,960.000000
473,-2560.000000,1080.000000
474,-2240.000000,1160.000000
475,-1920.000000,1240.000000
476,-1600.000000,1360.000000
477,-1360.000000,1440.000000
478,-960.000000,1520.000000
479,-640.000000,1600.000000
480,-320.000000,1680.000000
481,0.000000,1720.000000
482,320.000000,1760.000000
483,640.000000,1800.000000
484,960.000000,1880.000000
485,1280.000000,1920.000000
486,1600.000000,1920.000000
487,1920.000000,1920.000000
488,2240.000000,1960.000000
489,2480.000000,1960.000000
490,2800.000000,1920.000000
491,3040.000000,1920.000000
492,3280.000000,1920.000000
493,3520.000000,1880.000000
494,3760.000000,1840.000000
495,3920.000000,1800.000000
496,4160.000000,1760.000000
497,4320.000000,1680.000000
498,4480.000000,1600.000000
499,4640.000000,1560.000000
500,4720.000000,1480.000000
501,4720.000000,1400.000000
502,4720.000000,1280.000000
503,4720.000000,1200.000000
504,4640.000000,1080.000000
505,4640.000000,960.000000
506,4640.000000,840.000000
507,4640.000000,720.000000
508,4560.000000,600.000000
509,4560.000000,480.000000
510,4480.000000,320.000000
511,4400.000000,240.000000
512,4320.000000,80.000000
513,4160.000000,-80.000000
514,4000.000000,-200.000000
515,3920.000000,-320.000000
516,3680.000000,-400.000000
517,3520.000000,-600.000000
518,3280.000000,-720.000000
519,3040.000000,-840.000000
520,2800.000000,-960.000000
521,2560.000000,-1080.000000
522,2320.000000,-1200.000000
523,2080.000000,-1280.000000
524,1760.000000,-1400.000000
525,1440.000000,-1480.000000
526,1120.000000,-1600.000000
527,880.000000,-1680.000000
528,560.000000,-1760.000000
529,240.000000,-1840.000000
530,-80.000000,-1880.000000
531,-320.000000,-1960.000000
532,-640.000000,-2000.000000
533,-960.000000,-2040.000000
534,-1280.000000,-2080.000000
535,-1520.000000,-2080.000000
536,-1840.000000,-2080.000000
537,-2160.000000,-2120.000000
538,-2400.000000,-2080.000000
539,-2640.000000,-2080.000000
540,-2880.000000,-2080.000000
541,-3120.000000,-2040.000000
542,-3360.000000,-2000.000000
543,-3520.000000,-1960.000000
544,-3680.000000,-1920.000000
545,-3920.000000,-1840.000000
546,-4080.000000,-1800.000000
547,-4160.000000,-1720.000000
548,-4320.000000,-1640.000000
549,-4480.000000,-1560.000000
550,-4560.000000,-1440.000000
551,-4720.000000,-1360.000000
552,-4800.000000,-1280.000000
553,-4880.000000,-1160.000000
554,-4960.000000,-1040.000000
555,-5040.000000,-920.000000
556,-5120.000000,-840.000000
557,-5120.000000,-720.000000
558,-5200.000000,-600.000000
559,-5200.000000,-480.000000
560,-5200.000000,-360.000000
561,-5120.000000,-240.000000
562,-5120.000000,-120.000000
563,-4960.000000,0.000000
564,-4880.000000,120.000000
565,-4720.000000,240.000000
566,-4560.000000,360.000000
567,-4320.000000,440.000000
568,-4080.000000,560.000000
569,-3760.000000,680.000000
570,-3520.000000,800.000000
571,-3200.000000,880.000000
572,-2880.000000,1000.000000
573,-2560.000000,1080.000000
574,-2320.000000,1200.000000
575,-2000.000000,1280.000000
576,-1600.000000,1360.000000
577,-1280.000000,1440.000000
578,-960.000000,1520.000000
579,-640.000000,1600.000000
580,-320.000000,1680.000000
581,0.000000,1720.000000
582,320.000000,1800.000000
583,640.000000,1840.000000
584,960.000000,1880.000000
585,1280.000000,1880.000000
586,1600.000000,1920.000000
587,1920.000000,1920.000000
588,2240.000000,1960.000000
589,2480.000000,1920.000000
590,2800.000000,1920.000000
591,3040.000000,1920.000000
592,3280.000000,1880.000000
593,3520.000000,1880.000000
594,3760.000000,1840.000000
595,3920.000000,1800.000000
596,4160.000000,1720.000000
597,4320.000000,1680.000000
598,4480.000000,1600.000000
599,4560.000000,1520.000000
600,4640.000000,1440.000000
601,4720.000000,1360.000000
602,4720.000000,1240.000000
603,4640.000000,1120.000000
604,4640.000000,1040.000000
605,4640.000000,920.000000
606,4640.000000,800.000000
607,4640.000000,680.000000
608,4560.000000,560.000000
609,4560.000000,440.000000
610,4480.000000,320.000000
611,4400.000000,160.000000
612,4320.000000,40.000000
613,4160.000000,-80.000000
614,4000.000000,-200.000000
615,3840.000000,-360.000000
616,3680.000000,-480.000000
617,3440.000000,-600.000000
618,3200.000000,-720.000000
619,3040.000000,-840.000000
620,2800.000000,-960.000000
621,2480.000000,-1080.000000
622,2240.000000,-1200.000000
623,2000.000000,-1280.000000
624,1680.000000,-1400.000000
625,1440.000000,-1480.000000
626,1120.000000,-1600.000000
627,800.000000,-1680.000000
628,480.000000,-1760.000000
629,240.000000,-1800.000000
630,-80.000000,-1880.000000
631,-400.000000,-1920.000000
632,-640.000000,-2000.000000
633,-960.000000,-2000.000000
634,-1280.000000,-2000.000000
635,-1600.000000,-2080.000000
636,-1840.000000,-2080.000000
637,-2080.000000,-2080.000000
638,-2400.000000,-2080.000000
639,-2640.000000,-2080.000000
640,-2880.000000,-2040.000000
641,-3120.000000,-2040.000000
642,-3360.000000,-2000.000000
643,-3520.000000,-1960.000000
644,-3680.000000,-1880.000000
645,-3920.000000,-1840.000000
646,-4000.000000,-1760.000000
647,-4160.000000,-1680.000000
648,-4320.000000,-1600.000000
649,-4400.000000,-1520.000000
650,-4480.000000,-1440.000000
651,-4640.000000,-1360.000000
652,-4720.000000,-1240.000000
653,-4800.000000,-1120.000000
654,-4880.000000,-1040.000000
655,-4960.000000,-920.000000
656,-4960.000000,-800.000000
657,-5040.000000,-680.000000
658,-5040.000000,-560.000000
659,-5040.000000,-440.000000
660,-4960.000000,-320.000000
661,-4880.000000,-200.000000
662,-4800.000000,-80.000000
663,-4720.000000,40.000000
664,-4560.000000,160.000000
665,-4320.000000,280.000000
666,-4160.000000,400.000000
667,-3920.000000,520.000000
668,-3600.000000,600.000000
669,-3360.000000,720.000000
670,-3040.000000,840.000000
671,-2800.000000,960.000000
672,-2480.000000,1040.000000
673,-2160.000000,1160.000000
674,-1840.000000,1280.000000
675,-1520.000000,1360.000000
676,-1200.000000,1440.000000
677,-880.000000,1480.000000
678,-560.000000,1600.000000
679,-240.000000,1640.000000
680,80.000000,1720.000000
681,400.000000,1760.000000
682,720.000000,1840.000000
683,1040.000000,1880.000000
684,1360.000000,1920.000000
685,1680.000000,1920.000000
686,2000.000000,1960.000000
687,2240.000000,1960.000000
688,2560.000000,1960.000000
689,2800.000000,1960.000000
690,3120.000000,1960.000000
691,3360.000000,1920.000000
692,3600.000000,1880.000000
