data/20000101_021718dd.csv

Channel              :,CH1,CH2
Frequency            :,300.3Hz,2.510KHz
Period               :,3.330ms,0.398ms
PK-PK                :,18.24V,3.720V
Average              :,-31.47mV,-64.03mV
Vertical pos         :,160.000000mV,0.000000mV
Probe attenuation    :,1X,1X
Voltage per ADC value:,1.250000mV,0.625000mV
Time interval        :,4.00000uS,4.00000uS

index,CH1_Voltage(mV),CH2_Voltage(mV)
1,1040.000000,-400.000000
2,1120.000000,-320.000000
3,1200.000000,-200.000000
4,1360.000000,-120.000000
5,1520.000000,0.000000
6,1600.000000,80.000000
7,1760.000000,200.000000
8,2000.000000,320.000000
9,2160.000000,440.000000
10,2320.000000,520.000000
11,2560.000000,600.000000
12,2800.000000,720.000000
13,2960.000000,800.000000
14,3200.000000,920.000000
15,3440.000000,1000.000000
16,3760.000000,1080.000000
17,4000.000000,1160.000000
18,4240.000000,1240.000000
19,4480.000000,1320.000000
20,4720.000000,1360.000000
21,4960.000000,1440.000000
22,5280.000000,1480.000000
23,5520.000000,1520.000000
24,5760.000000,1560.000000
25,6000.000000,1600.000000
26,6240.000000,1640.000000
27,6480.000000,1640.000000
28,6720.000000,1640.000000
29,6960.000000,1680.000000
30,7120.000000,1680.000000
31,7360.000000,1640.000000
32,7600.000000,1640.000000
33,7760.000000,1640.000000
34,7920.000000,1600.000000
35,8080.000000,1560.000000
36,8240.000000,1520.000000
37,8320.000000,1440.000000
38,8480.000000,1400.000000
39,8560.000000,1360.000000
40,8640.000000,1280.000000
41,8720.000000,1200.000000
42,8720.000000,1120.000000
43,8800.000000,1040.000000
44,8800.000000,920.000000
45,8800.000000,840.000000
46,8800.000000,720.000000
47,8720.000000,640.000000
48,8640.000000,520.000000
49,8560.000000,400.000000
50,8480.000000,320.000000
51,8400.000000,200.000000
52,8320.000000,80.000000
53,8160.000000,-40.000000
54,8000.000000,-160.000000
55,7840.000000,-240.000000
56,7680.000000,-400.000000
57,7440.000000,-520.000000
58,7280.000000,-600.000000
59,7040.000000,-720.000000
60,6880.000000,-800.000000
61,6560.000000,-920.000000
62,6320.000000,-1040.000000
63,6080.000000,-1120.000000
64,5840.000000,-1200.000000
65,5600.000000,-1320.000000
66,5280.000000,-1440.000000
67,5040.000000,-1480.000000
68,4720.000000,-1560.000000
69,4480.000000,-1600.000000
70,4160.000000,-1680.000000
71,3920.000000,-1760.000000
72,3680.000000,-1800.000000
73,3360.000000,-1840.000000
74,3120.000000,-1840.000000
75,2880.000000,-1880.000000
76,2560.000000,-1920.000000
77,2320.000000,-1920.000000
78,2080.000000,-1920.000000
79,1840.000000,-1920.000000
80,1680.000000,-1920.000000
81,1440.000000,-1880.000000
82,1280.000000,-1880.000000
83,1040.000000,-1840.000000
84,880.000000,-1800.000000
85,720.000000,-1720.000000
86,560.000000,-1680.000000
87,400.000000,-1600.000000
88,240.000000,-1560.000000
89,80.000000,-1440.000000
90,-160.000000,-1400.000000
91,-320.000000,-1320.000000
92,-480.000000,-1240.000000
93,-640.000000,-1120.000000
94,-880.000000,-1040.000000
95,-1040.000000,-960.000000
96,-1200.000000,-880.000000
97,-1360.000000,-800.000000
98,-1520.000000,-680.000000
99,-1680.000000,-600.000000
100,-1840.000000,-520.000000
101,-2000.000000,-440.000000
102,-2160.000000,-360.000000
103,-2320.000000,-280.000000
104,-2480.000000,-200.000000
105,-2640.000000,-120.000000
106,-2800.000000,-80.000000
107,-2880.000000,0.000000
108,-2960.000000,40.000000
109,-3040.000000,120.000000
110,-3120.000000,160.000000
111,-3120.000000,200.000000
112,-3200.000000,240.000000
113,-3200.000000,320.000000
114,-3280.000000,320.000000
115,-3280.000000,360.000000
116,-3280.000000,400.000000
117,-3280.000000,440.000000
118,-3280.000000,440.000000
119,-3280.000000,440.000000
120,-3280.000000,480.000000
121,-3280.000000,480.000000
122,-3280.000000,480.000000
123,-3280.000000,480.000000
124,-3280.000000,480.000000
125,-3200.000000,480.000000
126,-3280.000000,480.000000
127,-3280.000000,480.000000
128,-3280.000000,440.000000
129,-3280.000000,440.000000
130,-3280.000000,400.000000
131,-3280.000000,360.000000
132,-3280.000000,360.000000
133,-3280.000000,320.000000
134,-3360.000000,280.000000
135,-3360.000000,240.000000
136,-3440.000000,200.000000
137,-3440.000000,160.000000
138,-3520.000000,160.000000
139,-3520.000000,80.000000
140,-3600.000000,40.000000
141,-3680.000000,40.000000
142,-3760.000000,-40.000000
143,-3840.000000,-80.000000
144,-3920.000000,-120.000000
145,-4000.000000,-160.000000
146,-4080.000000,-200.000000
147,-4160.000000,-280.000000
148,-4240.000000,-320.000000
149,-4400.000000,-360.000000
150,-4480.000000,-400.000000
151,-4560.000000,-440.000000
152,-4720.000000,-480.000000
153,-4800.000000,-520.000000
154,-4960.000000,-560.000000
155,-5040.000000,-600.000000
156,-5120.000000,-640.000000
157,-5280.000000,-680.000000
158,-5440.000000,-720.000000
159,-5520.000000,-760.000000
160,-5680.000000,-760.000000
161,-5760.000000,-800.000000
162,-5920.000000,-800.000000
163,-6000.000000,-840.000000
164,-6160.000000,-840.000000
165,-6240.000000,-840.000000
166,-6320.000000,-840.000000
167,-6480.000000,-840.000000
168,-6560.000000,-840.000000
169,-6640.000000,-840.000000
170,-6720.000000,-840.000000
171,-6880.000000,-840.000000
172,-6880.000000,-840.000000
173,-6960.000000,-800.000000
174,-7040.000000,-800.000000
175,-7200.000000,-760.000000
176,-7200.000000,-760.000000
177,-7280.000000,-720.000000
178,-7280.000000,-720.000000
179,-7360.000000,-640.000000
180,-7360.000000,-640.000000
181,-7360.000000,-560.000000
182,-7360.000000,-520.000000
183,-7360.000000,-480.000000
184,-7360.000000,-480.000000
185,-7360.000000,-400.000000
186,-7360.000000,-360.000000
187,-7360.000000,-320.000000
188,-7280.000000,-280.000000
189,-7280.000000,-200.000000
190,-7280.000000,-160.000000
191,-7200.000000,-120.000000
192,-7120.000000,-40.000000
193,-7040.000000,0.000000
194,-6960.000000,40.000000
195,-6880.000000,80.000000
196,-6800.000000,120.000000
197,-6720.000000,200.000000
198,-6640.000000,240.000000
199,-6480.000000,280.000000
200,-6400.000000,320.000000
201,-6320.000000,400.000000
202,-6160.000000,440.000000
203,-6080.000000,480.000000
204,-5920.000000,520.000000
205,-5840.000000,560.000000
206,-5680.000000,600.000000
207,-5600.000000,600.000000
208,-5440.000000,640.000000
209,-5280.000000,680.000000
210,-5200.000000,720.000000
211,-5120.000000,720.000000
212,-4960.000000,760.000000
213,-4800.000000,760.000000
214,-4720.000000,760.000000
215,-4560.000000,760.000000
216,-4480.000000,760.000000
217,-4400.000000,760.000000
218,-4320.000000,760.000000
219,-4160.000000,760.000000
220,-4080.000000,760.000000
221,-4000.000000,720.000000
222,-3920.000000,720.000000
223,-3840.000000,720.000000
224,-3760.000000,680.000000
225,-3760.000000,640.000000
226,-3680.000000,600.000000
227,-3680.000000,600.000000
228,-3600.000000,560.000000
229,-3600.000000,520.000000
230,-3600.000000,480.000000
231,-3600.000000,440.000000
232,-3600.000000,360.000000
233,-3600.000000,360.000000
234,-3600.000000,280.000000
235,-3600.000000,240.000000
236,-3600.000000,160.000000
237,-3680.000000,120.000000
238,-3760.000000,80.000000
239,-3760.000000,0.000000
240,-3840.000000,-40.000000
241,-3920.000000,-120.000000
242,-4000.000000,-160.000000
243,-4080.000000,-200.000000
244,-4160.000000,-280.000000
245,-4320.000000,-320.000000
246,-4400.000000,-400.000000
247,-4480.000000,-440.000000
248,-4640.000000,-480.000000
249,-4720.000000,-520.000000
250,-4880.000000,-600.000000
251,-4960.000000,-640.000000
252,-5120.000000,-680.000000
253,-5280.000000,-720.000000
254,-5360.000000,-760.000000
255,-5520.000000,-800.000000
256,-5680.000000,-840.000000
257,-5760.000000,-840.000000
258,-5920.000000,-880.000000
259,-6080.000000,-920.000000
260,-6240.000000,-920.000000
261,-6320.000000,-960.000000
262,-6480.000000,-960.000000
263,-6560.000000,-960.000000
264,-6720.000000,-960.000000
265,-6800.000000,-1000.000000
266,-6880.000000,-960.000000
267,-7040.000000,-960.000000
268,-7120.000000,-960.000000
269,-7200.000000,-960.000000
270,-7280.000000,-920.000000
271,-7360.000000,-920.000000
272,-7440.000000,-880.000000
273,-7520.000000,-840.000000
274,-7600.000000,-800.000000
275,-7680.000000,-800.000000
276,-7680.000000,-720.000000
277,-7680.000000,-680.000000
278,-7760.000000,-680.000000
279,-7760.000000,-600.000000
280,-7760.000000,-560.000000
281,-7760.000000,-520.000000
282,-7760.000000,-440.000000
283,-7680.000000,-400.000000
284,-7680.000000,-360.000000
285,-7600.000000,-280.000000
286,-7600.000000,-200.000000
287,-7520.000000,-160.000000
288,-7440.000000,-120.000000
289,-7360.000000,-40.000000
290,-7280.000000,40.000000
291,-7200.000000,80.000000
292,-7120.000000,160.000000
293,-6960.000000,200.000000
294,-6880.000000,280.000000
295,-6800.000000,320.000000
296,-6640.000000,360.000000
297,-6480.000000,440.000000
298,-6400.000000,520.000000
299,-6240.000000,520.000000
300,-6080.000000,600.000000
301,-6000.000000,640.000000
302,-5840.000000,680.000000
303,-5680.000000,720.000000
304,-5520.000000,760.000000
305,-5360.000000,800.000000
306,-5200.000000,840.000000
307,-5120.000000,840.000000
308,-4960.000000,880.000000
309,-4800.000000,880.000000
310,-4640.000000,920.000000
311,-4480.000000,920.000000
312,-4400.000000,920.000000
313,-4240.000000,920.000000
314,-4080.000000,920.000000
315,-4000.000000,920.000000
316,-3920.000000,920.000000
317,-3760.000000,880.000000
318,-3680.000000,880.000000
319,-3600.000000,840.000000
320,-3520.000000,840.000000
321,-3440.000000,800.000000
322,-3360.000000,760.000000
323,-3280.000000,720.000000
324,-3280.000000,680.000000
325,-3280.000000,640.000000
326,-3200.000000,600.000000
327,-3200.000000,560.000000
328,-3200.000000,480.000000
329,-3200.000000,440.000000
330,-3200.000000,400.000000
331,-3200.000000,320.000000
332,-3280.000000,240.000000
333,-3280.000000,200.000000
334,-3360.000000,120.000000
335,-3440.000000,80.000000
336,-3520.000000,0.000000
337,-3600.000000,-80.000000
338,-3680.000000,-120.000000
339,-3760.000000,-200.000000
340,-3840.000000,-280.000000
341,-4000.000000,-320.000000
342,-4080.000000,-400.000000
343,-4240.000000,-480.000000
344,-4400.000000,-560.000000
345,-4480.000000,-600.000000
346,-4640.000000,-640.000000
347,-4800.000000,-720.000000
348,-4960.000000,-760.000000
349,-5120.000000,-800.000000
350,-5280.000000,-880.000000
351,-5360.000000,-920.000000
352,-5520.000000,-960.000000
353,-5760.000000,-960.000000
354,-5920.000000,-1040.000000
355,-6080.000000,-1040.000000
356,-6160.000000,-1080.000000
357,-6400.000000,-1120.000000
358,-6560.000000,-1120.000000
359,-6640.000000,-1160.000000
360,-6880.000000,-1160.000000
361,-6960.000000,-1160.000000
362,-7120.000000,-1160.000000
363,-7200.000000,-1160.000000
364,-7360.000000,-1120.000000
365,-7440.000000,-1120.000000
366,-7600.000000,-1120.000000
367,-7680.000000,-1080.000000
368,-7760.000000,-1040.000000
369,-7840.000000,-1000.000000
370,-7920.000000,-1000.000000
371,-8000.000000,-960.000000
372,-8080.000000,-920.000000
373,-8080.000000,-840.000000
374,-8160.000000,-800.000000
375,-8160.000000,-760.000000
376,-8160.000000,-680.000000
377,-8160.000000,-640.000000
378,-8160.000000,-560.000000
379,-8160.000000,-520.000000
380,-8080.000000,-440.000000
381,-8080.000000,-360.000000
382,-8000.000000,-320.000000
383,-7920.000000,-240.000000
384,-7840.000000,-160.000000
385,-7760.000000,-80.000000
386,-7680.000000,0.000000
387,-7600.000000,40.000000
388,-7440.000000,120.000000
389,-7360.000000,200.000000
390,-7200.000000,280.000000
391,-7120.000000,360.000000
392,-6960.000000,400.000000
393,-6800.000000,520.000000
394,-6640.000000,560.000000
395,-6480.000000,600.000000
396,-6320.000000,680.000000
397,-6160.000000,720.000000
398,-6000.000000,800.000000
399,-5760.000000,840.000000
400,-5600.000000,880.000000
401,-5440.000000,920.000000
402,-5280.000000,960.000000
403,-5120.000000,1000.000000
404,-4880.000000,1040.000000
405,-4720.000000,1080.000000
406,-4560.000000,1080.000000
407,-4400.000000,1080.000000
408,-4240.000000,1120.000000
409,-4080.000000,1120.000000
410,-3920.000000,1120.000000
411,-3760.000000,1120.000000
412,-3680.000000,1120.000000
413,-3520.000000,1080.000000
414,-3360.000000,1080.000000
415,-3280.000000,1040.000000
416,-3200.000000,1040.000000
417,-3120.000000,1000.000000
418,-3040.000000,960.000000
419,-2960.000000,920.000000
420,-2880.000000,880.000000
421,-2800.000000,800.000000
422,-2800.000000,760.000000
423,-2720.000000,720.000000
424,-2720.000000,640.000000
425,-2720.000000,560.000000
426,-2720.000000,520.000000
427,-2720.000000,440.000000
428,-2800.000000,360.000000
429,-2800.000000,320.000000
430,-2880.000000,200.000000
431,-2960.000000,160.000000
432,-3040.000000,80.000000
433,-3120.000000,0.000000
434,-3200.000000,-80.000000
435,-3280.000000,-160.000000
436,-3440.000000,-240.000000
437,-3520.000000,-320.000000
438,-3680.000000,-400.000000
439,-3840.000000,-480.000000
440,-4000.000000,-560.000000
441,-4160.000000,-640.000000
442,-4320.000000,-720.000000
443,-4480.000000,-760.000000
444,-4640.000000,-840.000000
445,-4880.000000,-920.000000
446,-5040.000000,-1000.000000
447,-5200.000000,-1040.000000
448,-5440.000000,-1080.000000
449,-5600.000000,-1120.000000
450,-5840.000000,-1160.000000
451,-6000.000000,-1200.000000
452,-6160.000000,-1280.000000
453,-6400.000000,-1280.000000
454,-6560.000000,-1320.000000
455,-6720.000000,-1320.000000
456,-6960.000000,-1360.000000
457,-7120.000000,-1360.000000
458,-7280.000000,-1360.000000
459,-7440.000000,-1360.000000
460,-7600.000000,-1360.000000
461,-7680.000000,-1320.000000
462,-7840.000000,-1320.000000
463,-8000.000000,-1280.000000
464,-8080.000000,-1280.000000
465,-8160.000000,-1240.000000
466,-8320.000000,-1200.000000
467,-8400.000000,-1160.000000
468,-8480.000000,-1120.000000
469,-8480.000000,-1040.000000
470,-8560.000000,-1000.000000
471,-8560.000000,-920.000000
472,-8640.000000,-880.000000
473,-8640.000000,-800.000000
474,-8640.000000,-720.000000
475,-8640.000000,-640.000000
476,-8560.000000,-560.000000
477,-8560.000000,-480.000000
478,-8480.000000,-400.000000
479,-8400.000000,-320.000000
480,-8320.000000,-240.000000
481,-8240.000000,-160.000000
482,-8160.000000,-80.000000
483,-8000.000000,0.000000
484,-7920.000000,120.000000
485,-7760.000000,200.000000
486,-7600.000000,280.000000
487,-7440.000000,360.000000
488,-7280.000000,440.000000
489,-7120.000000,520.000000
490,-6960.000000,600.000000
491,-6800.000000,680.000000
492,-6640.000000,720.000000
493,-6400.000000,840.000000
494,-6240.000000,880.000000
495,-6000.000000,960.000000
496,-5760.000000,1040.000000
497,-5600.000000,1080.000000
498,-5360.000000,1120.000000
499,-5200.000000,1160.000000
500,-4960.000000,1200.000000
501,-4800.000000,1240.000000
502,-4560.000000,1280.000000
503,-4320.000000,1280.000000
504,-4160.000000,1320.000000
505,-4000.000000,1320.000000
506,-3760.000000,1320.000000
507,-3600.000000,1320.000000
508,-3440.000000,1320.000000
509,-3280.000000,1320.000000
510,-3120.000000,1320.000000
511,-2960.000000,1280.000000
512,-2800.000000,1240.000000
513,-2720.000000,1200.000000
514,-2560.000000,1200.000000
515,-2480.000000,1120.000000
516,-2400.000000,1080.000000
517,-2320.000000,1040.000000
518,-2240.000000,960.000000
519,-2160.000000,920.000000
520,-2080.000000,840.000000
521,-2080.000000,760.000000
522,-2000.000000,680.000000
523,-2000.000000,600.000000
524,-1920.000000,560.000000
525,-1920.000000,440.000000
526,-1920.000000,360.000000
527,-1920.000000,280.000000
528,-2000.000000,200.000000
529,-2080.000000,120.000000
530,-2080.000000,40.000000
531,-2240.000000,-40.000000
532,-2320.000000,-120.000000
533,-2480.000000,-200.000000
534,-2640.000000,-320.000000
535,-2800.000000,-400.000000
536,-2960.000000,-480.000000
537,-3120.000000,-560.000000
538,-3360.000000,-640.000000
539,-3520.000000,-720.000000
540,-3760.000000,-800.000000
541,-4000.000000,-880.000000
542,-4240.000000,-960.000000
543,-4400.000000,-1040.000000
544,-4640.000000,-1120.000000
545,-4880.000000,-1200.000000
546,-5120.000000,-1240.000000
547,-5360.000000,-1280.000000
548,-5600.000000,-1360.000000
549,-5840.000000,-1400.000000
550,-6000.000000,-1440.000000
551,-6240.000000,-1480.000000
552,-6480.000000,-1480.000000
553,-6720.000000,-1520.000000
554,-6880.000000,-1520.000000
555,-7120.000000,-1560.000000
556,-7360.000000,-1560.000000
557,-7520.000000,-1560.000000
558,-7680.000000,-1560.000000
559,-7840.000000,-1560.000000
560,-8000.000000,-1520.000000
561,-8160.000000,-1480.000000
562,-8320.000000,-1480.000000
563,-8480.000000,-1400.000000
564,-8560.000000,-1400.000000
565,-8640.000000,-1320.000000
566,-8800.000000,-1280.000000
567,-8880.000000,-1240.000000
568,-8960.000000,-1160.000000
569,-8960.000000,-1080.000000
570,-8960.000000,-1000.000000
571,-9040.000000,-960.000000
572,-9040.000000,-840.000000
573,-9040.000000,-760.000000
574,-8960.000000,-680.000000
575,-8960.000000,-600.000000
576,-8880.000000,-480.000000
577,-8880.000000,-400.000000
578,-8720.000000,-320.000000
579,-8640.000000,-200.000000
580,-8560.000000,-120.000000
581,-8400.000000,0.000000
582,-8320.000000,80.000000
583,-8160.000000,200.000000
584,-8000.000000,280.000000
585,-7840.000000,400.000000
586,-7600.000000,480.000000
587,-7440.000000,560.000000
588,-7200.000000,680.000000
589,-7040.000000,760.000000
590,-6800.000000,840.000000
591,-6560.000000,920.000000
592,-6320.000000,1000.000000
593,-6080.000000,1080.000000
594,-5920.000000,1160.000000
595,-5680.000000,1240.000000
596,-5440.000000,1280.000000
597,-5200.000000,1320.000000
598,-4960.000000,1400.000000
599,-4720.000000,1400.000000
600,-4480.000000,1480.000000
601,-4240.000000,1480.000000
602,-4000.000000,1520.000000
603,-3760.000000,1520.000000
604,-3600.000000,1520.000000
605,-3360.000000,1560.000000
606,-3120.000000,1520.000000
607,-2960.000000,1520.000000
608,-2800.000000,1520.000000
609,-2640.000000,1480.000000
610,-2480.000000,1440.000000
611,-2320.000000,1440.000000
612,-2160.000000,1400.000000
613,-2000.000000,1320.000000
614,-1840.000000,1280.000000
615,-1680.000000,1240.000000
616,-1520.000000,1160.000000
617,-1360.000000,1080.000000
618,-1200.000000,1040.000000
619,-1040.000000,960.000000
620,-880.000000,880.000000
621,-720.000000,800.000000
622,-560.000000,760.000000
623,-400.000000,680.000000
624,-160.000000,600.000000
625,0.000000,520.000000
626,160.000000,440.000000
627,320.000000,360.000000
628,480.000000,320.000000
629,640.000000,240.000000
630,880.000000,200.000000
631,1040.000000,120.000000
632,1200.000000,80.000000
633,1360.000000,0.000000
634,1520.000000,-40.000000
635,1600.000000,-80.000000
636,1760.000000,-120.000000
637,1840.000000,-160.000000
638,1920.000000,-200.000000
639,2000.000000,-200.000000
640,2080.000000,-240.000000
641,2160.000000,-280.000000
642,2240.000000,-280.000000
643,2240.000000,-320.000000
644,2320.000000,-320.000000
645,2400.000000,-320.000000
646,2400.000000,-320.000000
647,2480.000000,-320.000000
648,2480.000000,-320.000000
649,2560.000000,-360.000000
650,2560.000000,-320.000000
651,2640.000000,-320.000000
652,2640.000000,-320.000000
653,2640.000000,-320.000000
654,2720.000000,-280.000000
655,2720.000000,-280.000000
656,2800.000000,-280.000000
657,2800.000000,-240.000000
658,2880.000000,-240.000000
659,2880.000000,-200.000000
660,2960.000000,-160.000000
661,2960.000000,-160.000000
662,3040.000000,-120.000000
663,3120.000000,-80.000000
664,3200.000000,-80.000000
665,3200.000000,-40.000000
666,3280.000000,0.000000
667,3360.000000,0.000000
668,3440.000000,40.000000
669,3520.000000,80.000000
670,3600.000000,120.000000
671,3680.000000,120.000000
672,3760.000000,160.000000
673,3840.000000,200.000000
674,3920.000000,240.000000
675,4000.000000,240.000000
676,4080.000000,280.000000
677,4160.000000,320.000000
678,4240.000000,320.000000
679,4320.000000,360.000000
680,4400.000000,360.000000
681,4480.000000,400.000000
682,4640.000000,400.000000
683,4720.000000,440.000000
684,4800.000000,440.000000
685,4880.000000,480.000000
686,4960.000000,480.000000
687,5040.000000,480.000000
688,5120.000000,480.000000
689,5200.000000,480.000000
690,5280.000000,520.000000
691,5360.000000,480.000000
692,5440.000000,480.000000
693,5520.000000,480.000000
