data/20000101_021921ss.csv

Channel              :,CH1,CH2
Frequency            :,2.507KHz,2.507KHz
Period               :,0.399ms,0.399ms
PK-PK                :,9.520V,3.320V
Average              :,-86.74mV,-56.71mV
Vertical pos         :,160.000000mV,0.000000mV
Probe attenuation    :,1X,1X
Voltage per ADC value:,1.250000mV,0.625000mV
Time interval        :,4.00000uS,4.00000uS

index,CH1_Voltage(mV),CH2_Voltage(mV)
1,1760.000000,-520.000000
2,1600.000000,-600.000000
3,1440.000000,-720.000000
4,1200.000000,-800.000000
5,1040.000000,-880.000000
6,800.000000,-960.000000
7,560.000000,-1040.000000
8,400.000000,-1120.000000
9,160.000000,-1160.000000
10,-80.000000,-1240.000000
11,-320.000000,-1280.000000
12,-560.000000,-1360.000000
13,-720.000000,-1400.000000
14,-960.000000,-1440.000000
15,-1200.000000,-1480.000000
16,-1440.000000,-1520.000000
17,-1680.000000,-1520.000000
18,-1840.000000,-1560.000000
19,-2080.000000,-1560.000000
20,-2320.000000,-1560.000000
21,-2480.000000,-1560.000000
22,-2720.000000,-1560.000000
23,-2880.000000,-1560.000000
24,-3040.000000,-1520.000000
25,-3200.000000,-1520.000000
26,-3360.000000,-1480.000000
27,-3520.000000,-1480.000000
28,-3600.000000,-1400.000000
29,-3760.000000,-1360.000000
30,-3840.000000,-1280.000000
31,-3920.000000,-1240.000000
32,-4000.000000,-1160.000000
33,-4080.000000,-1120.000000
34,-4080.000000,-1040.000000
35,-4080.000000,-960.000000
36,-4080.000000,-880.000000
37,-4160.000000,-800.000000
38,-4080.000000,-680.000000
39,-4080.000000,-600.000000
40,-4000.000000,-520.000000
41,-4000.000000,-400.000000
42,-3920.000000,-320.000000
43,-3760.000000,-200.000000
44,-3680.000000,-120.000000
45,-3600.000000,0.000000
46,-3440.000000,80.000000
47,-3280.000000,160.000000
48,-3120.000000,280.000000
49,-2960.000000,360.000000
50,-2800.000000,480.000000
51,-2560.000000,600.000000
52,-2400.000000,680.000000
53,-2160.000000,760.000000
54,-2000.000000,840.000000
55,-1760.000000,920.000000
56,-1520.000000,1000.000000
57,-1280.000000,1080.000000
58,-1040.000000,1160.000000
59,-800.000000,1200.000000
60,-560.000000,1280.000000
61,-320.000000,1320.000000
62,-80.000000,1400.000000
63,160.000000,1440.000000
64,400.000000,1480.000000
65,640.000000,1480.000000
66,880.000000,1520.000000
67,1120.000000,1560.000000
68,1360.000000,1560.000000
69,1520.000000,1560.000000
70,1760.000000,1560.000000
71,2000.000000,1560.000000
72,2160.000000,1520.000000
73,2320.000000,1520.000000
74,2480.000000,1480.000000
75,2640.000000,1440.000000
76,2800.000000,1400.000000
77,2960.000000,1360.000000
78,3040.000000,1320.000000
79,3200.000000,1240.000000
80,3280.000000,1200.000000
81,3360.000000,1120.000000
82,3440.000000,1040.000000
83,3520.000000,960.000000
84,3680.000000,880.000000
85,3760.000000,800.000000
86,3840.000000,720.000000
87,3840.000000,600.000000
88,3920.000000,520.000000
89,3920.000000,440.000000
90,4000.000000,360.000000
91,4000.000000,280.000000
92,4000.000000,200.000000
93,3920.000000,80.000000
94,3920.000000,0.000000
95,3840.000000,-120.000000
96,3760.000000,-200.000000
97,3680.000000,-280.000000
98,3520.000000,-360.000000
99,3360.000000,-440.000000
100,3200.000000,-560.000000
101,2960.000000,-640.000000
102,2640.000000,-720.000000
103,2480.000000,-800.000000
104,2240.000000,-880.000000
105,1920.000000,-960.000000
106,1680.000000,-1040.000000
107,1440.000000,-1120.000000
108,1200.000000,-1160.000000
109,880.000000,-1240.000000
110,640.000000,-1280.000000
111,400.000000,-1360.000000
112,80.000000,-1400.000000
113,-160.000000,-1440.000000
114,-400.000000,-1480.000000
115,-640.000000,-1520.000000
116,-960.000000,-1560.000000
117,-1200.000000,-1600.000000
118,-1440.000000,-1600.000000
119,-1680.000000,-1640.000000
120,-1920.000000,-1640.000000
121,-2080.000000,-1640.000000
122,-2320.000000,-1640.000000
123,-2560.000000,-1600.000000
124,-2720.000000,-1600.000000
125,-2880.000000,-1560.000000
126,-3120.000000,-1560.000000
127,-3280.000000,-1520.000000
128,-3360.000000,-1480.000000
129,-3520.000000,-1400.000000
130,-3600.000000,-1360.000000
131,-3760.000000,-1320.000000
132,-3840.000000,-1240.000000
133,-3920.000000,-1160.000000
134,-4000.000000,-1120.000000
135,-4000.000000,-1040.000000
136,-4080.000000,-960.000000
137,-4080.000000,-840.000000
138,-4080.000000,-760.000000
139,-4000.000000,-680.000000
140,-4000.000000,-560.000000
141,-3920.000000,-480.000000
142,-3920.000000,-400.000000
143,-3840.000000,-280.000000
144,-3680.000000,-160.000000
145,-3600.000000,-80.000000
146,-3440.000000,0.000000
147,-3360.000000,120.000000
148,-3200.000000,240.000000
149,-3040.000000,320.000000
150,-2880.000000,440.000000
151,-2640.000000,520.000000
152,-2480.000000,600.000000
153,-2240.000000,720.000000
154,-2080.000000,800.000000
155,-1840.000000,880.000000
156,-1600.000000,960.000000
157,-1360.000000,1040.000000
158,-1120.000000,1120.000000
159,-880.000000,1200.000000
160,-640.000000,1280.000000
161,-400.000000,1320.000000
162,-160.000000,1360.000000
163,80.000000,1440.000000
164,320.000000,1440.000000
165,560.000000,1480.000000
166,800.000000,1520.000000
167,1040.000000,1560.000000
168,1280.000000,1560.000000
169,1440.000000,1560.000000
170,1680.000000,1560.000000
171,1920.000000,1560.000000
172,2080.000000,1560.000000
173,2320.000000,1520.000000
174,2480.000000,1520.000000
175,2640.000000,1480.000000
176,2800.000000,1440.000000
177,2880.000000,1400.000000
178,3040.000000,1360.000000
179,3120.000000,1280.000000
180,3280.000000,1240.000000
181,3360.000000,1160.000000
182,3520.000000,1080.000000
183,3600.000000,1000.000000
184,3680.000000,960.000000
185,3760.000000,840.000000
186,3840.000000,760.000000
187,4000.000000,680.000000
188,4000.000000,600.000000
189,4080.000000,520.000000
190,4160.000000,440.000000
191,4160.000000,320.000000
192,4240.000000,240.000000
193,4240.000000,160.000000
194,4240.000000,80.000000
195,4160.000000,-40.000000
196,4160.000000,-120.000000
197,4080.000000,-200.000000
198,4000.000000,-280.000000
199,3840.000000,-400.000000
200,3760.000000,-440.000000
201,3520.000000,-520.000000
202,3360.000000,-600.000000
203,3120.000000,-680.000000
204,2880.000000,-760.000000
205,2640.000000,-840.000000
206,2400.000000,-920.000000
207,2080.000000,-1000.000000
208,1840.000000,-1040.000000
209,1600.000000,-1120.000000
210,1280.000000,-1200.000000
211,1040.000000,-1240.000000
212,800.000000,-1280.000000
213,480.000000,-1360.000000
214,240.000000,-1400.000000
215,0.000000,-1440.000000
216,-320.000000,-1480.000000
217,-560.000000,-1480.000000
218,-800.000000,-1520.000000
219,-1040.000000,-1560.000000
220,-1280.000000,-1560.000000
221,-1520.000000,-1600.000000
222,-1760.000000,-1600.000000
223,-2000.000000,-1600.000000
224,-2160.000000,-1560.000000
225,-2400.000000,-1560.000000
226,-2560.000000,-1560.000000
227,-2800.000000,-1520.000000
228,-2960.000000,-1480.000000
229,-3120.000000,-1440.000000
230,-3200.000000,-1400.000000
231,-3360.000000,-1360.000000
232,-3440.000000,-1320.000000
233,-3600.000000,-1240.000000
234,-3680.000000,-1200.000000
235,-3760.000000,-1120.000000
236,-3760.000000,-1040.000000
237,-3840.000000,-960.000000
238,-3840.000000,-880.000000
239,-3840.000000,-800.000000
240,-3840.000000,-720.000000
241,-3840.000000,-600.000000
242,-3760.000000,-520.000000
243,-3760.000000,-440.000000
244,-3680.000000,-360.000000
245,-3600.000000,-240.000000
246,-3520.000000,-120.000000
247,-3440.000000,-40.000000
248,-3280.000000,40.000000
249,-3120.000000,160.000000
250,-2960.000000,240.000000
251,-2880.000000,320.000000
252,-2640.000000,440.000000
253,-2480.000000,520.000000
254,-2320.000000,640.000000
255,-2080.000000,720.000000
256,-1920.000000,800.000000
257,-1680.000000,880.000000
258,-1440.000000,960.000000
259,-1280.000000,1000.000000
260,-1040.000000,1120.000000
261,-800.000000,1160.000000
262,-560.000000,1200.000000
263,-320.000000,1280.000000
264,-80.000000,1320.000000
265,160.000000,1360.000000
266,400.000000,1400.000000
267,640.000000,1440.000000
268,800.000000,1480.000000
269,1040.000000,1480.000000
270,1280.000000,1520.000000
271,1440.000000,1480.000000
272,1680.000000,1520.000000
273,1840.000000,1480.000000
274,2080.000000,1480.000000
275,2240.000000,1440.000000
276,2400.000000,1440.000000
277,2560.000000,1400.000000
278,2720.000000,1360.000000
279,2800.000000,1320.000000
280,2960.000000,1280.000000
281,3040.000000,1200.000000
282,3120.000000,1160.000000
283,3200.000000,1080.000000
284,3280.000000,1000.000000
285,3360.000000,960.000000
286,3440.000000,880.000000
287,3520.000000,800.000000
288,3520.000000,680.000000
289,3600.000000,600.000000
290,3600.000000,520.000000
291,3600.000000,440.000000
292,3600.000000,320.000000
293,3600.000000,240.000000
294,3520.000000,160.000000
295,3440.000000,40.000000
296,3360.000000,-40.000000
297,3280.000000,-120.000000
298,3120.000000,-240.000000
299,2960.000000,-320.000000
300,2720.000000,-400.000000
301,2560.000000,-520.000000
302,2320.000000,-600.000000
303,2160.000000,-680.000000
304,1920.000000,-800.000000
305,1680.000000,-880.000000
306,1440.000000,-960.000000
307,1200.000000,-1040.000000
308,960.000000,-1120.000000
309,720.000000,-1200.000000
310,480.000000,-1240.000000
311,240.000000,-1320.000000
312,0.000000,-1400.000000
313,-320.000000,-1440.000000
314,-560.000000,-1480.000000
315,-800.000000,-1520.000000
316,-1040.000000,-1560.000000
317,-1280.000000,-1600.000000
318,-1520.000000,-1640.000000
319,-1760.000000,-1640.000000
320,-2000.000000,-1640.000000
321,-2240.000000,-1680.000000
322,-2480.000000,-1680.000000
323,-2640.000000,-1680.000000
324,-2880.000000,-1640.000000
325,-3040.000000,-1640.000000
326,-3200.000000,-1600.000000
327,-3360.000000,-1560.000000
328,-3520.000000,-1520.000000
329,-3680.000000,-1480.000000
330,-3760.000000,-1400.000000
331,-3920.000000,-1360.000000
332,-4000.000000,-1280.000000
333,-4080.000000,-1240.000000
334,-4160.000000,-1160.000000
335,-4240.000000,-1080.000000
336,-4240.000000,-1000.000000
337,-4240.000000,-920.000000
338,-4240.000000,-840.000000
339,-4240.000000,-760.000000
340,-4240.000000,-640.000000
341,-4160.000000,-560.000000
342,-4080.000000,-440.000000
343,-4000.000000,-360.000000
344,-3920.000000,-240.000000
345,-3840.000000,-120.000000
346,-3680.000000,-40.000000
347,-3600.000000,80.000000
348,-3440.000000,200.000000
349,-3280.000000,280.000000
350,-3040.000000,400.000000
351,-2880.000000,480.000000
352,-2640.000000,600.000000
353,-2480.000000,680.000000
354,-2240.000000,760.000000
355,-2080.000000,880.000000
356,-1840.000000,960.000000
357,-1600.000000,1040.000000
358,-1360.000000,1120.000000
359,-1040.000000,1200.000000
360,-800.000000,1280.000000
361,-560.000000,1320.000000
362,-320.000000,1360.000000
363,-80.000000,1440.000000
364,160.000000,1480.000000
365,400.000000,1520.000000
366,640.000000,1560.000000
367,960.000000,1600.000000
368,1200.000000,1600.000000
369,1440.000000,1640.000000
370,1600.000000,1640.000000
371,1840.000000,1640.000000
372,2080.000000,1640.000000
373,2240.000000,1600.000000
374,2400.000000,1600.000000
375,2640.000000,1560.000000
376,2800.000000,1520.000000
377,2960.000000,1480.000000
378,3120.000000,1440.000000
379,3200.000000,1360.000000
380,3360.000000,1320.000000
381,3520.000000,1240.000000
382,3600.000000,1160.000000
383,3760.000000,1120.000000
384,3920.000000,1040.000000
385,4000.000000,960.000000
386,4160.000000,840.000000
387,4240.000000,760.000000
388,4400.000000,720.000000
389,4480.000000,600.000000
390,4560.000000,520.000000
391,4720.000000,440.000000
392,4800.000000,360.000000
393,4880.000000,240.000000
394,4880.000000,160.000000
395,4960.000000,80.000000
396,5040.000000,0.000000
397,5040.000000,-80.000000
398,5040.000000,-160.000000
399,5120.000000,-200.000000
400,5120.000000,-280.000000
401,5040.000000,-360.000000
402,5040.000000,-440.000000
403,5040.000000,-480.000000
404,4960.000000,-560.000000
405,4880.000000,-600.000000
406,4800.000000,-640.000000
407,4720.000000,-680.000000
408,4560.000000,-760.000000
409,4480.000000,-760.000000
410,4320.000000,-840.000000
411,4080.000000,-880.000000
412,3920.000000,-880.000000
413,3760.000000,-920.000000
414,3440.000000,-960.000000
415,3200.000000,-1000.000000
416,2880.000000,-1000.000000
417,2560.000000,-1040.000000
418,2320.000000,-1040.000000
419,2000.000000,-1080.000000
420,1760.000000,-1080.000000
421,1440.000000,-1120.000000
422,1200.000000,-1120.000000
423,960.000000,-1160.000000
424,720.000000,-1160.000000
425,480.000000,-1160.000000
426,240.000000,-1160.000000
427,0.000000,-1160.000000
428,-160.000000,-1160.000000
429,-400.000000,-1160.000000
430,-560.000000,-1160.000000
431,-800.000000,-1160.000000
432,-960.000000,-1120.000000
433,-1120.000000,-1120.000000
434,-1280.000000,-1120.000000
435,-1440.000000,-1080.000000
436,-1600.000000,-1040.000000
437,-1680.000000,-1000.000000
438,-1840.000000,-1000.000000
439,-1920.000000,-960.000000
440,-2080.000000,-920.000000
441,-2080.000000,-880.000000
442,-2240.000000,-800.000000
443,-2240.000000,-760.000000
444,-2320.000000,-720.000000
445,-2320.000000,-640.000000
446,-2400.000000,-600.000000
447,-2400.000000,-560.000000
448,-2400.000000,-480.000000
449,-2400.000000,-400.000000
450,-2400.000000,-360.000000
451,-2320.000000,-280.000000
452,-2320.000000,-240.000000
453,-2240.000000,-160.000000
454,-2240.000000,-80.000000
455,-2160.000000,-40.000000
456,-2080.000000,40.000000
457,-2000.000000,120.000000
458,-1920.000000,160.000000
459,-1760.000000,240.000000
460,-1680.000000,280.000000
461,-1600.000000,360.000000
462,-1440.000000,400.000000
463,-1360.000000,480.000000
464,-1200.000000,520.000000
465,-1040.000000,600.000000
466,-880.000000,640.000000
467,-800.000000,680.000000
468,-640.000000,720.000000
469,-480.000000,760.000000
470,-320.000000,800.000000
471,-160.000000,840.000000
472,0.000000,880.000000
473,80.000000,880.000000
474,240.000000,880.000000
475,400.000000,920.000000
476,560.000000,960.000000
477,720.000000,960.000000
478,800.000000,960.000000
479,960.000000,1000.000000
480,1040.000000,960.000000
481,1200.000000,960.000000
482,1360.000000,920.000000
483,1440.000000,920.000000
484,1520.000000,920.000000
485,1600.000000,880.000000
486,1680.000000,840.000000
487,1760.000000,800.000000
488,1840.000000,760.000000
489,1920.000000,720.000000
490,1920.000000,680.000000
491,2000.000000,640.000000
492,2000.000000,600.000000
493,2000.000000,560.000000
494,2000.000000,480.000000
495,2000.000000,440.000000
496,2000.000000,360.000000
497,2000.000000,320.000000
498,1920.000000,240.000000
499,1920.000000,200.000000
500,1840.000000,120.000000
501,1760.000000,40.000000
502,1760.000000,0.000000
503,1600.000000,-80.000000
504,1520.000000,-160.000000
505,1440.000000,-240.000000
506,1360.000000,-280.000000
507,1200.000000,-360.000000
508,1120.000000,-400.000000
509,960.000000,-480.000000
510,800.000000,-560.000000
511,640.000000,-600.000000
512,560.000000,-680.000000
513,400.000000,-720.000000
514,240.000000,-760.000000
515,80.000000,-840.000000
516,-80.000000,-880.000000
517,-240.000000,-920.000000
518,-400.000000,-960.000000
519,-560.000000,-1000.000000
520,-720.000000,-1040.000000
521,-880.000000,-1040.000000
522,-1120.000000,-1080.000000
523,-1280.000000,-1120.000000
524,-1440.000000,-1120.000000
525,-1520.000000,-1120.000000
526,-1680.000000,-1120.000000
527,-1840.000000,-1160.000000
528,-2000.000000,-1160.000000
529,-2080.000000,-1160.000000
530,-2240.000000,-1120.000000
531,-2400.000000,-1120.000000
532,-2480.000000,-1080.000000
533,-2560.000000,-1040.000000
534,-2640.000000,-1040.000000
535,-2800.000000,-1000.000000
536,-2800.000000,-960.000000
537,-2880.000000,-920.000000
538,-2960.000000,-880.000000
539,-3040.000000,-840.000000
540,-3040.000000,-800.000000
541,-3040.000000,-720.000000
542,-3040.000000,-680.000000
543,-3120.000000,-600.000000
544,-3120.000000,-560.000000
545,-3040.000000,-480.000000
546,-3040.000000,-400.000000
547,-2960.000000,-360.000000
548,-2960.000000,-280.000000
549,-2880.000000,-200.000000
550,-2800.000000,-120.000000
551,-2720.000000,-40.000000
552,-2640.000000,0.000000
553,-2560.000000,80.000000
554,-2400.000000,160.000000
555,-2320.000000,240.000000
556,-2160.000000,280.000000
557,-2000.000000,360.000000
558,-1920.000000,400.000000
559,-1760.000000,480.000000
560,-1600.000000,560.000000
561,-1440.000000,640.000000
562,-1280.000000,680.000000
563,-1120.000000,720.000000
564,-960.000000,800.000000
565,-800.000000,840.000000
566,-640.000000,880.000000
567,-400.000000,920.000000
568,-240.000000,960.000000
569,-80.000000,1000.000000
570,80.000000,1040.000000
571,240.000000,1040.000000
572,400.000000,1080.000000
573,640.000000,1080.000000
574,800.000000,1120.000000
575,880.000000,1080.000000
576,1040.000000,1120.000000
577,1200.000000,1080.000000
578,1360.000000,1080.000000
579,1520.000000,1080.000000
580,1600.000000,1040.000000
581,1760.000000,1040.000000
582,1840.000000,1000.000000
583,1920.000000,960.000000
584,2000.000000,920.000000
585,2080.000000,880.000000
586,2160.000000,840.000000
587,2240.000000,800.000000
588,2240.000000,760.000000
589,2320.000000,680.000000
590,2320.000000,640.000000
591,2320.000000,560.000000
592,2320.000000,520.000000
593,2320.000000,440.000000
594,2320.000000,360.000000
595,2240.000000,280.000000
596,2240.000000,240.000000
597,2160.000000,160.000000
598,2080.000000,80.000000
599,2000.000000,0.000000
600,1920.000000,-80.000000
601,1760.000000,-160.000000
602,1680.000000,-240.000000
603,1600.000000,-320.000000
604,1440.000000,-400.000000
605,1280.000000,-480.000000
606,1120.000000,-560.000000
607,960.000000,-600.000000
608,800.000000,-680.000000
609,640.000000,-760.000000
610,480.000000,-800.000000
611,320.000000,-880.000000
612,160.000000,-920.000000
613,0.000000,-1000.000000
614,-240.000000,-1040.000000
615,-400.000000,-1080.000000
616,-560.000000,-1120.000000
617,-800.000000,-1160.000000
618,-960.000000,-1200.000000
619,-1120.000000,-1200.000000
620,-1280.000000,-1240.000000
621,-1520.000000,-1240.000000
622,-1680.000000,-1280.000000
623,-1840.000000,-1280.000000
624,-2000.000000,-1280.000000
625,-2160.000000,-1280.000000
626,-2320.000000,-1280.000000
627,-2480.000000,-1280.000000
628,-2640.000000,-1240.000000
629,-2720.000000,-1240.000000
630,-2880.000000,-1200.000000
631,-2960.000000,-1160.000000
632,-3040.000000,-1120.000000
633,-3120.000000,-1080.000000
634,-3200.000000,-1040.000000
635,-3280.000000,-1000.000000
636,-3360.000000,-920.000000
637,-3360.000000,-880.000000
638,-3440.000000,-800.000000
639,-3440.000000,-760.000000
640,-3440.000000,-680.000000
641,-3440.000000,-600.000000
642,-3440.000000,-520.000000
643,-3360.000000,-480.000000
644,-3280.000000,-400.000000
645,-3280.000000,-320.000000
646,-3200.000000,-240.000000
647,-3120.000000,-160.000000
648,-3040.000000,-80.000000
649,-2960.000000,0.000000
650,-2800.000000,80.000000
651,-2720.000000,160.000000
652,-2560.000000,240.000000
653,-2400.000000,320.000000
654,-2320.000000,400.000000
655,-2160.000000,480.000000
656,-1920.000000,560.000000
657,-1760.000000,640.000000
658,-1600.000000,720.000000
659,-1440.000000,800.000000
660,-1200.000000,840.000000
661,-1040.000000,880.000000
662,-880.000000,960.000000
663,-640.000000,1000.000000
664,-480.000000,1040.000000
665,-240.000000,1080.000000
666,-80.000000,1120.000000
667,160.000000,1160.000000
668,320.000000,1200.000000
669,560.000000,1200.000000
670,720.000000,1240.000000
671,880.000000,1240.000000
672,1120.000000,1240.000000
673,1280.000000,1240.000000
674,1440.000000,1240.000000
675,1600.000000,1240.000000
676,1760.000000,1200.000000
677,1840.000000,1200.000000
678,2000.000000,1160.000000
679,2080.000000,1160.000000
680,2240.000000,1120.000000
681,2320.000000,1040.000000
682,2400.000000,1040.000000
683,2480.000000,960.000000
684,2560.000000,920.000000
685,2640.000000,840.000000
686,2640.000000,800.000000
687,2640.000000,720.000000
688,2720.000000,680.000000
689,2720.000000,600.000000
690,2640.000000,520.000000
691,2640.000000,440.000000
692,2640.000000,360.000000
693,2560.000000,240.000000
694,2480.000000,160.000000
695,2400.000000,120.000000
696,2320.000000,0.000000
697,2240.000000,-80.000000
698,2080.000000,-160.000000
699,2000.000000,-240.000000
